REC,ann
Az8529,A
Az8530,A
Az8531,A
Az8532,A
Az8533,A
Az8534,A
Az8535,A
Az8536,A
Az8537,A
Az8538,A
Az8539,A
Az8540,A
Az8541,A
Az8542,A
Az8543,A
Az8544,A
Az8545,A
Az8546,A
Az8547,A
Az8548,A
Az8549,A
Az8550,A
Az8551,A
Az8552,A
Az8553,A
Az8554,A
Az8555,A
Az8556,A
Az8557,A
Az8558,A
Az8559,A
Az8560,A
Az8561,A
Az8562,A
Az8563,A
Az8564,A
Az8565,A
Az8566,A
Az8567,A
Az8568,A
Az8569,A
Az8570,A
Az8571,A
Az8572,A
Az8573,A
Az8574,A
Az8575,A
Az8576,A
Az8577,A
Az8578,A
Az8579,A
Az8580,A
Az8581,A
Az8582,A
Az8583,A
Az8584,A
Az8585,A
Az8586,A
Az8587,A
Az8588,A
Az8589,A
Az8590,A
Az8591,A
Az8592,A
Az8593,A
Az8594,A
Az8595,A
Az8596,A
Az8597,A
Az8598,A
Az8599,A
Az8600,A
Az8601,A
Az8602,A
Az8603,A
Az8604,A
Az8605,A
Az8606,A
Az8607,A
Az8608,A
Az8609,A
Az8610,A
Az8611,A
Az8612,A
Az8613,A
Az8614,A
Az8615,A
Az8616,A
Az8617,A
Az8618,A
Az8619,A
Az8620,A
Az8621,A
Az8622,A
Az8623,A
Az8624,A
Az8625,A
Az8626,A
Az8627,A
Az8628,A
Az8629,A
Az8630,A
Az8631,A
Az8632,A
Az8633,A
Az8634,A
Az8635,A
Az8636,A
Az8637,A
Az8639,A
Az8640,A
Az8641,A
Az8642,A
Az8643,A
Az8644,A
Az8645,A
Az8646,A
Az8647,A
Az8648,A
Az8649,A
Az8650,A
Az8651,A
Az8652,A
Az8653,A
Az8654,A
Az8655,A
Az8656,A
Az8657,A
Az8658,A
Az8659,A
Az8660,A
Az8661,A
Az8662,A
Az8663,A
Az8665,A
Az8666,A
Az8667,A
Az8668,A
Az8669,A
Az8672,A
Az8673,A
Az8674,A
Az8675,A
Az8676,A
Az8677,A
Az8678,A
Az8679,A
Az8680,A
Az8681,A
Az8682,A
Az8683,A
Az8684,A
Az8685,A
Az8686,A
Az8687,A
Az8688,A
Az8689,A
Az8690,A
Az8691,A
Az8692,A
Az8693,A
Az8694,A
Az8695,A
Az8696,A
Az8697,A
Az8698,A
Az8699,A
Az8700,A
Az8701,A
Az8702,A
Az8703,A
Az8704,A
Az8705,A
Az8706,A
Az8707,A
Az8708,A
Az8709,A
Az8710,A
Az8711,A
Az8712,A
Az8713,A
Az8714,A
Az8715,A
Az8716,A
Az8717,A
Az8718,A
Az8719,A
Az8720,A
Az8721,A
Az8722,A
Az8723,A
Az8724,A
Az8725,A
Az8726,A
Az8727,A
Az8728,A
Az8729,A
Az8730,A
Az8731,A
Az8733,N
Az8734,N
Az8735,N
Az8736,N
Az8737,N
Az8738,N
Az8739,N
Az8741,N
Az8742,N
Az8743,N
Az8744,N
Az8745,N
Az8746,N
Az8747,N
Az8749,N
Az8750,N
Az8751,N
Az8752,N
Az8753,N
Az8754,N
Az8755,N
Az8757,N
Az8758,N
Az8759,N
Az8760,N
Az8761,N
Az8763,N
Az8764,N
Az8765,N
Az8766,N
Az8768,N
Az8769,N
Az8770,N
Az8771,N
Az8772,N
Az8773,N
Az8774,N
Az8775,N
Az8776,N
Az8777,N
Az8778,N
Az8779,N
Az8780,N
Az8781,N
Az8782,N
Az8783,N
Az8784,N
Az8785,N
Az8786,N
Az8787,N
Az8788,N
Az8789,N
Az8790,N
Az8791,N
Az8792,N
Az8793,N
Az8794,N
Az8795,N
Az8796,N
Az8797,N
Az8798,N
Az8799,N
Az8800,N
Az8801,N
Az8802,N
Az8804,N
Az8805,N
Az8806,N
Az8807,N
Az8808,N
Az8809,N
Az8810,N
Az8811,N
Az8813,N
Az8814,N
Az8815,N
Az8816,N
Az8817,N
Az8818,N
Az8819,N
Az8820,N
Az8821,N
Az8822,N
Az8823,N
Az8824,N
Az8825,N
Az8826,N
Az8827,N
Az8829,N
Az8830,N
Az8831,N
Az8832,N
Az8833,N
Az8834,N
Az8835,N
Az8836,N
Az8837,N
Az8838,N
Az8839,N
Az8840,N
Az8841,N
Az8842,N
Az8843,N
Az8844,N
Az8845,N
Az8846,N
Az8847,N
Az8848,N
Az8849,N
Az8850,N
Az8851,N
Az8852,N
Az8853,N
Az8854,N
Az8855,N
Az8856,N
Az8857,N
Az8858,N
Az8859,N
Az8860,N
Az8861,N
Az8862,N
Az8863,N
Az8864,N
Az8865,N
Az8867,N
Az8869,N
Az8870,N
Az8871,N
Az8874,N
Az8875,N
Az8876,N
Az8877,N
Az8878,N
Az8879,N
Az8880,N
Az8881,N
Az8882,N
Az8883,N
Az8884,N
Az8885,N
Az8886,N
Az8887,N
Az8888,N
Az8889,N
Az8890,N
Az8891,N
Az8892,N
Az8893,N
Az8894,N
Az8895,N
Az8896,N
Az8897,N
Az8898,N
Az8899,N
Az8900,N
Az8901,N
Az8902,N
Az8903,N
Az8904,N
Az8905,N
Az8906,N
Az8907,N
Az8908,N
Az8909,N
Az8910,N
Az8911,N
Az8912,N
Az8914,N
Az8915,N
Az8916,N
Az8917,N
Az8918,N
Az8919,N
Az8920,N
Az8921,N
Az8923,N
Az8925,N
Az8926,N
Az8927,N
Az8929,N
