A00001,N
A00002,N
A00003,N
A00004,A
A00005,A
A00006,N
A00007,N
A00008,O
A00009,A
A00010,N
A00011,N
A00012,N
A00013,O
A00014,N
A00015,A
A00016,N
A00017,O
A00018,N
A00019,N
A00020,O
A00021,N
A00022,O
A00023,O
A00024,O
A00025,N
A00026,N
A00027,A
A00028,N
A00029,O
A00030,O
A00031,N
A00032,N
A00033,N
A00034,O
A00035,N
A00036,N
A00037,N
A00038,O
A00039,N
A00040,N
A00041,O
A00042,N
A00043,O
A00044,N
A00045,N
A00046,N
A00047,O
A00048,N
A00049,N
A00050,N
A00051,N
A00052,N
A00053,N
A00054,A
A00055,O
A00056,O
A00057,N
A00058,O
A00059,N
A00060,N
A00061,O
A00062,N
A00063,N
A00064,N
A00065,O
A00066,O
A00067,A
A00068,N
A00069,O
A00070,O
A00071,A
A00072,N
A00073,N
A00074,O
A00075,O
A00076,N
A00077,O
A00078,O
A00079,N
A00080,N
A00081,N
A00082,O
A00083,O
A00084,N
A00085,N
A00086,N
A00087,A
A00088,O
A00089,N
A00090,A
A00091,N
A00092,O
A00093,N
A00094,N
A00095,N
A00096,O
A00097,N
A00098,N
A00099,N
A00100,O
A00101,A
A00102,A
A00103,O
A00104,N
A00105,N
A00106,O
A00107,A
A00108,O
A00109,N
A00110,O
A00111,N
A00112,N
A00113,N
A00114,O
A00115,O
A00116,N
A00117,N
A00118,N
A00119,O
A00120,O
A00121,O
A00122,N
A00123,O
A00124,N
A00125,O
A00126,O
A00127,N
A00128,A
A00129,N
A00130,N
A00131,O
A00132,A
A00133,O
A00134,N
A00135,N
A00136,O
A00137,A
A00138,O
A00139,O
A00140,N
A00141,A
A00142,N
A00143,N
A00144,N
A00145,O
A00146,N
A00147,N
A00148,N
A00149,N
A00150,N
A00151,N
A00152,N
A00153,N
A00154,N
A00155,A
A00156,A
A00157,N
A00158,O
A00159,O
A00160,N
A00161,O
A00162,O
A00163,N
A00164,O
A00165,N
A00166,N
A00167,N
A00168,N
A00169,N
A00170,O
A00171,N
A00172,N
A00173,N
A00174,N
A00175,N
A00176,O
A00177,N
A00178,N
A00179,N
A00180,N
A00181,O
A00182,N
A00183,N
A00184,N
A00185,N
A00186,O
A00187,O
A00188,N
A00189,O
A00190,N
A00191,N
A00192,N
A00193,N
A00194,N
A00195,O
A00196,O
A00197,N
A00198,O
A00199,N
A00200,N
A00201,O
A00202,N
A00203,O
A00204,O
A00205,O
A00206,N
A00207,N
A00208,A
A00209,O
A00210,N
A00211,O
A00212,O
A00213,O
A00214,N
A00215,O
A00216,A
A00217,A
A00218,O
A00219,N
A00220,O
A00221,N
A00222,N
A00223,N
A00224,N
A00225,A
A00226,N
A00227,N
A00228,N
A00229,N
A00230,N
A00231,A
A00232,N
A00233,N
A00234,N
A00235,N
A00236,N
A00237,N
A00238,N
A00239,N
A00240,N
A00241,N
A00242,N
A00243,O
A00244,N
A00245,N
A00246,O
A00247,A
A00248,N
A00249,N
A00250,N
A00251,O
A00252,O
A00253,A
A00254,N
A00255,O
A00256,N
A00257,N
A00258,N
A00259,O
A00260,O
A00261,N
A00262,N
A00263,N
A00264,A
A00265,N
A00266,N
A00267,A
A00268,O
A00269,N
A00270,O
A00271,A
A00272,N
A00273,N
A00274,N
A00275,N
A00276,N
A00277,N
A00278,O
A00279,N
A00280,N
A00281,N
A00282,O
A00283,N
A00284,N
A00285,O
A00286,O
A00287,N
A00288,O
A00289,N
A00290,N
A00291,O
A00292,N
A00293,O
A00294,N
A00295,N
A00296,O
A00297,N
A00298,O
A00299,N
A00300,O
A00301,A
A00302,N
A00303,N
A00304,N
A00305,N
A00306,N
A00307,O
A00308,O
A00309,N
A00310,O
A00311,N
A00312,N
A00313,N
A00314,N
A00315,N
A00316,N
A00317,O
A00318,N
A00319,N
A00320,N
A00321,A
A00322,N
A00323,N
A00324,O
A00325,O
A00326,O
A00327,O
A00328,N
A00329,O
A00330,N
A00331,N
A00332,N
A00333,N
A00334,N
A00335,O
A00336,N
A00337,O
A00338,N
A00339,N
A00340,O
A00341,N
A00342,O
A00343,O
A00344,O
A00345,O
A00346,N
A00347,N
A00348,O
A00349,N
A00350,N
A00351,N
A00352,N
A00353,O
A00354,N
A00355,N
A00356,N
A00357,N
A00358,N
A00359,N
A00360,N
A00361,N
A00362,O
A00363,N
A00364,N
A00365,N
A00366,N
A00367,N
A00368,N
A00369,N
A00370,O
A00371,N
A00372,N
A00373,O
A00374,N
A00375,A
A00376,N
A00377,N
A00378,N
A00379,O
A00380,N
A00381,N
A00382,N
A00383,N
A00384,O
A00385,O
A00386,N
A00387,N
A00388,N
A00389,O
A00390,N
A00391,N
A00392,N
A00393,N
A00394,O
A00395,A
A00396,O
A00397,A
A00398,N
A00399,O
A00400,O
A00401,N
A00402,O
A00403,N
A00404,A
A00405,A
A00406,O
A00407,N
A00408,N
A00409,N
A00410,N
A00411,N
A00412,O
A00413,O
A00414,N
A00415,N
A00416,N
A00417,N
A00418,N
A00419,N
A00420,N
A00421,N
A00422,A
A00423,N
A00424,N
A00425,N
A00426,N
A00427,O
A00428,O
A00429,N
A00430,O
A00431,O
A00432,A
A00433,N
A00434,O
A00435,N
A00436,N
A00437,N
A00438,A
A00439,A
A00440,N
A00441,A
A00442,N
A00443,O
A00444,O
A00445,O
A00446,N
A00447,N
A00448,N
A00449,N
A00450,N
A00451,O
A00452,N
A00453,O
A00454,N
A00455,N
A00456,A
A00457,N
A00458,N
A00459,N
A00460,N
A00461,O
A00462,N
A00463,N
A00464,N
A00465,A
A00466,O
A00467,N
A00468,O
A00469,N
A00470,O
A00471,N
A00472,N
A00473,A
A00474,O
A00475,N
A00476,N
A00477,O
A00478,N
A00479,N
A00480,N
A00481,N
A00482,O
A00483,N
A00484,O
A00485,O
A00486,A
A00487,N
A00488,N
A00489,N
A00490,N
A00491,N
A00492,N
A00493,A
A00494,N
A00495,N
A00496,N
A00497,O
A00498,O
A00499,N
A00500,N
A00501,N
A00502,O
A00503,O
A00504,N
A00505,N
A00506,N
A00507,N
A00508,N
A00509,A
A00510,N
A00511,O
A00512,N
A00513,N
A00514,N
A00515,N
A00516,N
A00517,N
A00518,N
A00519,A
A00520,A
A00521,O
A00522,O
A00523,O
A00524,O
A00525,N
A00526,N
A00527,N
A00528,N
A00529,O
A00530,O
A00531,N
A00532,N
A00533,O
A00534,N
A00535,O
A00536,O
A00537,O
A00538,N
A00539,O
A00540,N
A00541,N
A00542,A
A00543,N
A00544,O
A00545,O
A00546,N
A00547,N
A00548,N
A00549,O
A00550,N
A00551,A
A00552,N
A00553,N
A00554,O
A00555,N
A00556,O
A00557,O
A00558,N
A00559,O
A00560,N
A00561,O
A00562,O
A00563,N
A00564,N
A00565,O
A00566,N
A00567,A
A00568,N
A00569,N
A00570,O
A00571,N
A00572,O
A00573,N
A00574,N
A00575,N
A00576,N
A00577,O
A00578,N
A00579,N
A00580,N
A00581,N
A00582,N
A00583,N
A00584,O
A00585,O
A00586,N
A00587,A
A00588,N
A00589,A
A00590,N
A00591,O
A00592,A
A00593,O
A00594,N
A00595,N
A00596,N
A00597,N
A00598,N
A00599,N
A00600,N
A00601,N
A00602,N
A00603,O
A00604,N
A00605,O
A00606,N
A00607,N
A00608,O
A00609,N
A00610,N
A00611,A
A00612,O
A00613,A
A00614,A
A00615,N
A00616,N
A00617,N
A00618,N
A00619,O
A00620,N
A00621,A
A00622,N
A00623,O
A00624,A
A00625,A
A00626,O
A00627,N
A00628,N
A00629,O
A00630,N
A00631,N
A00632,N
A00633,N
A00634,O
A00635,N
A00636,N
A00637,N
A00638,O
A00639,N
A00640,O
A00641,N
A00642,N
A00643,A
A00644,N
A00645,N
A00646,O
A00647,N
A00648,A
A00649,O
A00650,O
A00651,N
A00652,N
A00653,O
A00654,N
A00655,N
A00656,O
A00657,O
A00658,N
A00659,O
A00660,O
A00661,N
A00662,A
A00663,N
A00664,O
A00665,N
A00666,A
A00667,N
A00668,N
A00669,N
A00670,A
A00671,N
A00672,N
A00673,O
A00674,N
A00675,O
A00676,N
A00677,N
A00678,N
A00679,O
A00680,A
A00681,N
A00682,N
A00683,N
A00684,O
A00685,N
A00686,N
A00687,O
A00688,O
A00689,N
A00690,O
A00691,A
A00692,N
A00693,O
A00694,N
A00695,N
A00696,O
A00697,O
A00698,O
A00699,O
A00700,O
A00701,A
A00702,O
A00703,N
A00704,A
A00705,O
A00706,A
A00707,A
A00708,N
A00709,O
A00710,N
A00711,N
A00712,O
A00713,N
A00714,N
A00715,N
A00716,O
A00717,N
A00718,O
A00719,O
A00720,N
A00721,N
A00722,A
A00723,O
A00724,O
A00725,A
A00726,N
A00727,N
A00728,N
A00729,N
A00730,N
A00731,N
A00732,O
A00733,A
A00734,O
A00735,N
A00736,N
A00737,O
A00738,N
A00739,A
A00740,O
A00741,O
A00742,O
A00743,N
A00744,O
A00745,O
A00746,O
A00747,N
A00748,N
A00749,N
A00750,N
A00751,N
A00752,N
A00753,N
A00754,O
A00755,N
A00756,N
A00757,N
A00758,N
A00759,O
A00760,N
A00761,O
A00762,N
A00763,N
A00764,N
A00765,N
A00766,O
A00767,O
A00768,O
A00769,O
A00770,O
A00771,N
A00772,A
A00773,O
A00774,O
A00775,N
A00776,O
A00777,N
A00778,N
A00779,N
A00780,N
A00781,N
A00782,O
A00783,N
A00784,N
A00785,O
A00786,O
A00787,O
A00788,O
A00789,O
A00790,N
A00791,N
A00792,N
A00793,O
A00794,N
A00795,A
A00796,N
A00797,N
A00798,A
A00799,N
A00800,N
A00801,N
A00802,N
A00803,N
A00804,N
A00805,N
A00806,N
A00807,O
A00808,N
A00809,N
A00810,N
A00811,O
A00812,N
A00813,O
A00814,N
A00815,N
A00816,N
A00817,O
A00818,N
A00819,O
A00820,O
A00821,N
A00822,N
A00823,N
A00824,N
A00825,N
A00826,O
A00827,N
A00828,N
A00829,N
A00830,N
A00831,N
A00832,N
A00833,N
A00834,N
A00835,O
A00836,N
A00837,A
A00838,N
A00839,N
A00840,O
A00841,N
A00842,N
A00843,N
A00844,O
A00845,N
A00846,N
A00847,N
A00848,O
A00849,O
A00850,O
A00851,O
A00852,N
A00853,N
A00854,N
A00855,O
A00856,N
A00857,N
A00858,N
A00859,N
A00860,A
A00861,N
A00862,N
A00863,N
A00864,N
A00865,N
A00866,N
A00867,A
A00868,O
A00869,A
A00870,N
A00871,N
A00872,O
A00873,A
A00874,N
A00875,O
A00876,N
A00877,N
A00878,O
A00879,N
A00880,N
A00881,N
A00882,O
A00883,N
A00884,N
A00885,A
A00886,O
A00887,O
A00888,A
A00889,O
A00890,N
A00891,O
A00892,O
A00893,N
A00894,O
A00895,N
A00896,N
A00897,N
A00898,O
A00899,N
A00900,N
A00901,N
A00902,O
A00903,O
A00904,O
A00905,N
A00906,O
A00907,N
A00908,O
A00909,N
A00910,N
A00911,N
A00912,N
A00913,O
A00914,O
A00915,N
A00916,O
A00917,O
A00918,N
A00919,O
A00920,N
A00921,N
A00922,N
A00923,O
A00924,O
A00925,A
A00926,N
A00927,O
A00928,N
A00929,N
A00930,O
A00931,O
A00932,A
A00933,A
A00934,N
A00935,O
A00936,N
A00937,N
A00938,N
A00939,A
A00940,N
A00941,N
A00942,N
A00943,N
A00944,O
A00945,N
A00946,N
A00947,N
A00948,N
A00949,N
A00950,N
A00951,A
A00952,N
A00953,N
A00954,A
A00955,N
A00956,O
A00957,O
A00958,O
A00959,O
A00960,N
A00961,N
A00962,O
A00963,N
A00964,A
A00965,N
A00966,N
A00967,N
A00968,O
A00969,N
A00970,N
A00971,O
A00972,A
A00973,N
A00974,A
A00975,O
A00976,N
A00977,O
A00978,N
A00979,O
A00980,N
A00981,N
A00982,A
A00983,O
A00984,O
A00985,N
A00986,N
A00987,N
A00988,O
A00989,O
A00990,N
A00991,O
A00992,N
A00993,O
A00994,N
A00995,N
A00996,N
A00997,O
A00998,N
A00999,N
A01000,N
A01001,N
A01002,N
A01003,N
A01004,N
A01005,A
A01006,O
A01007,N
A01008,N
A01009,N
A01010,N
A01011,N
A01012,N
A01013,A
A01014,N
A01015,N
A01016,N
A01017,N
A01018,N
A01019,A
A01020,N
A01021,N
A01022,N
A01023,N
A01024,A
A01025,O
A01026,N
A01027,O
A01028,N
A01029,A
A01030,O
A01031,O
A01032,N
A01033,N
A01034,N
A01035,N
A01036,O
A01037,O
A01038,N
A01039,N
A01040,O
A01041,A
A01042,A
A01043,N
A01044,N
A01045,A
A01046,N
A01047,N
A01048,O
A01049,O
A01050,N
A01051,N
A01052,A
A01053,N
A01054,N
A01055,N
A01056,A
A01057,O
A01058,N
A01059,N
A01060,N
A01061,N
A01062,N
A01063,O
A01064,N
A01065,O
A01066,N
A01067,N
A01068,O
A01069,N
A01070,O
A01071,O
A01072,O
A01073,O
A01074,N
A01075,A
A01076,A
A01077,N
A01078,O
A01079,A
A01080,N
A01081,O
A01082,N
A01083,N
A01084,O
A01085,N
A01086,N
A01087,A
A01088,O
A01089,N
A01090,N
A01091,O
A01092,A
A01093,O
A01094,O
A01095,O
A01096,N
A01097,N
A01098,N
A01099,O
A01100,O
A01101,N
A01102,N
A01103,O
A01104,A
A01105,N
A01106,N
A01107,O
A01108,N
A01109,N
A01110,N
A01111,N
A01112,N
A01113,N
A01114,N
A01115,O
A01116,O
A01117,N
A01118,N
A01119,N
A01120,N
A01121,N
A01122,N
A01123,N
A01124,O
A01125,N
A01126,N
A01127,N
A01128,N
A01129,A
A01130,O
A01131,O
A01132,N
A01133,O
A01134,O
A01135,N
A01136,O
A01137,N
A01138,N
A01139,N
A01140,N
A01141,N
A01142,N
A01143,N
A01144,N
A01145,O
A01146,N
A01147,N
A01148,N
A01149,N
A01150,N
A01151,N
A01152,O
A01153,A
A01154,O
A01155,N
A01156,O
A01157,N
A01158,O
A01159,N
A01160,O
A01161,N
A01162,N
A01163,A
A01164,O
A01165,N
A01166,N
A01167,O
A01168,N
A01169,O
A01170,N
A01171,A
A01172,N
A01173,O
A01174,N
A01175,O
A01176,N
A01177,O
A01178,O
A01179,N
A01180,O
A01181,N
A01182,O
A01183,O
A01184,N
A01185,N
A01186,O
A01187,O
A01188,O
A01189,N
A01190,N
A01191,O
A01192,A
A01193,O
A01194,N
A01195,N
A01196,N
A01197,N
A01198,A
A01199,N
A01200,N
A01201,O
A01202,N
A01203,O
A01204,N
A01205,N
A01206,N
A01207,N
A01208,N
A01209,O
A01210,A
A01211,N
A01212,N
A01213,O
A01214,N
A01215,N
A01216,O
A01217,A
A01218,O
A01219,O
A01220,O
A01221,N
A01222,N
A01223,N
A01224,O
A01225,N
A01226,O
A01227,N
A01228,N
A01229,N
A01230,A
A01231,N
A01232,N
A01233,N
A01234,N
A01235,O
A01236,O
A01237,O
A01238,N
A01239,N
A01240,A
A01241,O
A01242,N
A01243,N
A01244,A
A01245,O
A01246,O
A01247,N
A01248,N
A01249,N
A01250,O
A01251,O
A01252,O
A01253,O
A01254,N
A01255,N
A01256,O
A01257,N
A01258,A
A01259,A
A01260,N
A01261,N
A01262,N
A01263,O
A01264,N
A01265,N
A01266,N
A01267,A
A01268,A
A01269,N
A01270,O
A01271,N
A01272,N
A01273,N
A01274,O
A01275,O
A01276,N
A01277,N
A01278,N
A01279,O
A01280,O
A01281,O
A01282,N
A01283,N
A01284,N
A01285,N
A01286,O
A01287,N
A01288,O
A01289,N
A01290,A
A01291,O
A01292,O
A01293,N
A01294,O
A01295,O
A01296,N
A01297,N
A01298,O
A01299,O
A01300,O
A01301,A
A01302,A
A01303,A
A01304,O
A01305,N
A01306,N
A01307,N
A01308,O
A01309,A
A01310,O
A01311,N
A01312,N
A01313,A
A01314,N
A01315,N
A01316,O
A01317,O
A01318,O
A01319,N
A01320,N
A01321,N
A01322,O
A01323,N
A01324,A
A01325,A
A01326,A
A01327,O
A01328,N
A01329,N
A01330,N
A01331,N
A01332,O
A01333,O
A01334,O
A01335,N
A01336,N
A01337,N
A01338,O
A01339,N
A01340,O
A01341,N
A01342,A
A01343,O
A01344,N
A01345,O
A01346,N
A01347,N
A01348,N
A01349,N
A01350,O
A01351,N
A01352,O
A01353,N
A01354,O
A01355,A
A01356,O
A01357,O
A01358,N
A01359,N
A01360,N
A01361,N
A01362,N
A01363,A
A01364,N
A01365,O
A01366,O
A01367,N
A01368,N
A01369,N
A01370,A
A01371,A
A01372,N
A01373,O
A01374,N
A01375,O
A01376,A
A01377,N
A01378,N
A01379,N
A01380,N
A01381,N
A01382,N
A01383,A
A01384,N
A01385,N
A01386,A
A01387,N
A01388,N
A01389,N
A01390,N
A01391,N
A01392,N
A01393,N
A01394,O
A01395,A
A01396,N
A01397,N
A01398,N
A01399,N
A01400,O
A01401,N
A01402,N
A01403,N
A01404,N
A01405,A
A01406,N
A01407,O
A01408,N
A01409,N
A01410,O
A01411,N
A01412,O
A01413,O
A01414,O
A01415,N
A01416,N
A01417,N
A01418,O
A01419,O
A01420,A
A01421,N
A01422,N
A01423,N
A01424,O
A01425,N
A01426,N
A01427,O
A01428,N
A01429,O
A01430,N
A01431,N
A01432,N
A01433,A
A01434,N
A01435,N
A01436,O
A01437,N
A01438,O
A01439,N
A01440,N
A01441,N
A01442,N
A01443,A
A01444,N
A01445,N
A01446,N
A01447,N
A01448,N
A01449,A
A01450,A
A01451,N
A01452,O
A01453,N
A01454,O
A01455,N
A01456,N
A01457,N
A01458,O
A01459,O
A01460,O
A01461,O
A01462,N
A01463,N
A01464,N
A01465,N
A01466,O
A01467,A
A01468,N
A01469,O
A01470,N
A01471,O
A01472,N
A01473,O
A01474,O
A01475,O
A01476,O
A01477,O
A01478,O
A01479,N
A01480,N
A01481,N
A01482,N
A01483,N
A01484,O
A01485,N
A01486,N
A01487,O
A01488,N
A01489,N
A01490,N
A01491,A
A01492,N
A01493,N
A01494,O
A01495,N
A01496,N
A01497,N
A01498,O
A01499,N
A01500,N
A01501,A
A01502,O
A01503,N
A01504,N
A01505,O
A01506,N
A01507,N
A01508,N
A01509,N
A01510,O
A01511,A
A01512,N
A01513,N
A01514,N
A01515,O
A01516,O
A01517,O
A01518,O
A01519,A
A01520,N
A01521,O
A01522,A
A01523,N
A01524,N
A01525,O
A01526,O
A01527,O
A01528,N
A01529,O
A01530,O
A01531,O
A01532,O
A01533,N
A01534,N
A01535,N
A01536,O
A01537,N
A01538,N
A01539,N
A01540,O
A01541,N
A01542,N
A01543,O
A01544,O
A01545,N
A01546,O
A01547,N
A01548,N
A01549,N
A01550,A
A01551,N
A01552,O
A01553,N
A01554,N
A01555,N
A01556,N
A01557,N
A01558,N
A01559,N
A01560,N
A01561,O
A01562,A
A01563,O
A01564,O
A01565,O
A01566,N
A01567,O
A01568,N
A01569,N
A01570,N
A01571,O
A01572,N
A01573,N
A01574,N
A01575,N
A01576,O
A01577,O
A01578,O
A01579,N
A01580,N
A01581,O
A01582,N
A01583,O
A01584,A
A01585,O
A01586,O
A01587,O
A01588,O
A01589,A
A01590,O
A01591,O
A01592,O
A01593,N
A01594,A
A01595,N
A01596,N
A01597,N
A01598,O
A01599,N
A01600,N
A01601,N
A01602,O
A01603,N
A01604,N
A01605,N
A01606,O
A01607,A
A01608,O
A01609,N
A01610,N
A01611,N
A01612,N
A01613,N
A01614,O
A01615,N
A01616,N
A01617,N
A01618,A
A01619,O
A01620,O
A01621,N
A01622,O
A01623,N
A01624,A
A01625,N
A01626,N
A01627,O
A01628,N
A01629,A
A01630,N
A01631,N
A01632,O
A01633,O
A01634,O
A01635,O
A01636,O
A01637,N
A01638,N
A01639,O
A01640,N
A01641,O
A01642,A
A01643,O
A01644,N
A01645,N
A01646,N
A01647,O
A01648,N
A01649,O
A01650,N
A01651,O
A01652,N
A01653,O
A01654,O
A01655,N
A01656,N
A01657,N
A01658,N
A01659,N
A01660,N
A01661,N
A01662,A
A01663,N
A01664,N
A01665,N
A01666,N
A01667,O
A01668,O
A01669,O
A01670,N
A01671,N
A01672,O
A01673,N
A01674,N
A01675,N
A01676,O
A01677,N
A01678,N
A01679,O
A01680,N
A01681,N
A01682,O
A01683,N
A01684,N
A01685,A
A01686,N
A01687,N
A01688,N
A01689,N
A01690,O
A01691,A
A01692,O
A01693,A
A01694,N
A01695,N
A01696,N
A01697,N
A01698,N
A01699,N
A01700,N
A01701,O
A01702,N
A01703,O
A01704,N
A01705,N
A01706,O
A01707,O
A01708,N
A01709,O
A01710,N
A01711,A
A01712,N
A01713,N
A01714,N
A01715,A
A01716,O
A01717,N
A01718,A
A01719,N
A01720,O
A01721,N
A01722,O
A01723,O
A01724,N
A01725,N
A01726,O
A01727,O
A01728,N
A01729,N
A01730,N
A01731,O
A01732,N
A01733,N
A01734,N
A01735,N
A01736,N
A01737,O
A01738,N
A01739,N
A01740,N
A01741,N
A01742,N
A01743,N
A01744,O
A01745,N
A01746,O
A01747,A
A01748,N
A01749,N
A01750,O
A01751,N
A01752,N
A01753,A
A01754,N
A01755,O
A01756,N
A01757,O
A01758,N
A01759,N
A01760,N
A01761,O
A01762,N
A01763,O
A01764,O
A01765,A
A01766,N
A01767,N
A01768,N
A01769,N
A01770,N
A01771,N
A01772,O
A01773,N
A01774,A
A01775,N
A01776,A
A01777,O
A01778,N
A01779,N
A01780,N
A01781,N
A01782,N
A01783,N
A01784,A
A01785,O
A01786,A
A01787,N
A01788,N
A01789,N
A01790,O
A01791,N
A01792,N
A01793,N
A01794,N
A01795,O
A01796,N
A01797,N
A01798,O
A01799,N
A01800,N
A01801,O
A01802,N
A01803,N
A01804,N
A01805,O
A01806,N
A01807,N
A01808,N
A01809,O
A01810,N
A01811,A
A01812,N
A01813,O
A01814,O
A01815,N
A01816,N
A01817,N
A01818,N
A01819,N
A01820,O
A01821,N
A01822,O
A01823,N
A01824,O
A01825,O
A01826,O
A01827,N
A01828,A
A01829,O
A01830,N
A01831,A
A01832,N
A01833,O
A01834,O
A01835,N
A01836,O
A01837,N
A01838,O
A01839,O
A01840,N
A01841,N
A01842,O
A01843,N
A01844,A
A01845,N
A01846,O
A01847,N
A01848,N
A01849,N
A01850,N
A01851,N
A01852,O
A01853,A
A01854,N
A01855,N
A01856,N
A01857,N
A01858,N
A01859,N
A01860,O
A01861,N
A01862,N
A01863,N
A01864,N
A01865,N
A01866,N
A01867,N
A01868,N
A01869,A
A01870,N
A01871,N
A01872,O
A01873,O
A01874,N
A01875,N
A01876,O
A01877,N
A01878,N
A01879,N
A01880,O
A01881,N
A01882,N
A01883,A
A01884,N
A01885,N
A01886,N
A01887,O
A01888,O
A01889,N
A01890,O
A01891,O
A01892,A
A01893,O
A01894,N
A01895,N
A01896,N
A01897,O
A01898,N
A01899,N
A01900,N
A01901,N
A01902,O
A01903,O
A01904,N
A01905,N
A01906,N
A01907,O
A01908,N
A01909,O
A01910,N
A01911,N
A01912,N
A01913,O
A01914,N
A01915,N
A01916,O
A01917,O
A01918,O
A01919,O
A01920,N
A01921,O
A01922,N
A01923,N
A01924,N
A01925,O
A01926,N
A01927,N
A01928,O
A01929,O
A01930,A
A01931,N
A01932,A
A01933,N
A01934,N
A01935,N
A01936,N
A01937,O
A01938,O
A01939,N
A01940,N
A01941,A
A01942,N
A01943,N
A01944,O
A01945,N
A01946,O
A01947,N
A01948,N
A01949,N
A01950,N
A01951,A
A01952,N
A01953,N
A01954,O
A01955,O
A01956,N
A01957,N
A01958,N
A01959,N
A01960,N
A01961,O
A01962,O
A01963,N
A01964,N
A01965,O
A01966,O
A01967,N
A01968,N
A01969,N
A01970,O
A01971,N
A01972,N
A01973,N
A01974,O
A01975,N
A01976,N
A01977,N
A01978,N
A01979,N
A01980,N
A01981,A
A01982,N
A01983,O
A01984,N
A01985,N
A01986,A
A01987,N
A01988,N
A01989,N
A01990,N
A01991,A
A01992,N
A01993,N
A01994,N
A01995,N
A01996,N
A01997,O
A01998,N
A01999,O
A02000,N
A02001,N
A02002,O
A02003,O
A02004,O
A02005,O
A02006,N
A02007,O
A02008,N
A02009,N
A02010,N
A02011,O
A02012,O
A02013,N
A02014,O
A02015,N
A02016,N
A02017,N
A02018,N
A02019,O
A02020,N
A02021,N
A02022,N
A02023,N
A02024,O
A02025,N
A02026,N
A02027,O
A02028,N
A02029,N
A02030,N
A02031,O
A02032,O
A02033,N
A02034,N
A02035,O
A02036,O
A02037,N
A02038,N
A02039,N
A02040,N
A02041,N
A02042,A
A02043,N
A02044,O
A02045,N
A02046,N
A02047,A
A02048,N
A02049,O
A02050,N
A02051,A
A02052,N
A02053,O
A02054,N
A02055,O
A02056,O
A02057,A
A02058,N
A02059,N
A02060,O
A02061,N
A02062,O
A02063,N
A02064,N
A02065,N
A02066,O
A02067,O
A02068,O
A02069,O
A02070,A
A02071,N
A02072,A
A02073,N
A02074,N
A02075,N
A02076,N
A02077,O
A02078,N
A02079,N
A02080,N
A02081,A
A02082,N
A02083,N
A02084,O
A02085,N
A02086,N
A02087,N
A02088,N
A02089,N
A02090,O
A02091,O
A02092,O
A02093,N
A02094,N
A02095,N
A02096,N
A02097,N
A02098,O
A02099,N
A02100,N
A02101,O
A02102,A
A02103,O
A02104,A
A02105,O
A02106,N
A02107,O
A02108,N
A02109,N
A02110,A
A02111,O
A02112,O
A02113,O
A02114,O
A02115,N
A02116,N
A02117,O
A02118,O
A02119,A
A02120,N
A02121,O
A02122,N
A02123,N
A02124,N
A02125,N
A02126,A
A02127,N
A02128,N
A02129,O
A02130,N
A02131,N
A02132,N
A02133,O
A02134,N
A02135,N
A02136,N
A02137,N
A02138,N
A02139,N
A02140,N
A02141,N
A02142,N
A02143,N
A02144,N
A02145,N
A02146,N
A02147,N
A02148,N
A02149,N
A02150,A
A02151,N
A02152,O
A02153,O
A02154,N
A02155,N
A02156,N
A02157,O
A02158,O
A02159,A
A02160,N
A02161,N
A02162,N
A02163,O
A02164,O
A02165,A
A02166,N
A02167,N
A02168,O
A02169,N
A02170,O
A02171,O
A02172,N
A02173,N
A02174,N
A02175,N
A02176,O
A02177,O
A02178,N
A02179,N
A02180,O
A02181,O
A02182,N
A02183,O
A02184,N
A02185,N
A02186,N
A02187,O
A02188,N
A02189,N
A02190,A
A02191,N
A02192,O
A02193,O
A02194,O
A02195,N
A02196,O
A02197,A
A02198,N
A02199,N
A02200,N
A02201,N
A02202,O
A02203,N
A02204,N
A02205,O
A02206,N
A02207,N
A02208,N
A02209,N
A02210,N
A02211,N
A02212,O
A02213,O
A02214,O
A02215,N
A02216,N
A02217,O
A02218,A
A02219,N
A02220,N
A02221,N
A02222,O
A02223,O
A02224,A
A02225,N
A02226,O
A02227,N
A02228,O
A02229,N
A02230,N
A02231,N
A02232,O
A02233,O
A02234,N
A02235,O
A02236,N
A02237,N
A02238,N
A02239,N
A02240,N
A02241,N
A02242,O
A02243,N
A02244,N
A02245,O
A02246,N
A02247,O
A02248,A
A02249,N
A02250,N
A02251,N
A02252,O
A02253,O
A02254,O
A02255,O
A02256,N
A02257,O
A02258,N
A02259,O
A02260,N
A02261,N
A02262,N
A02263,N
A02264,N
A02265,O
A02266,N
A02267,N
A02268,O
A02269,N
A02270,O
A02271,N
A02272,N
A02273,O
A02274,N
A02275,N
A02276,N
A02277,N
A02278,O
A02279,A
A02280,O
A02281,N
A02282,N
A02283,N
A02284,O
A02285,N
A02286,O
A02287,N
A02288,N
A02289,A
A02290,A
A02291,A
A02292,N
A02293,N
A02294,O
A02295,O
A02296,O
A02297,N
A02298,N
A02299,O
A02300,O
A02301,O
A02302,O
A02303,O
A02304,O
A02305,N
A02306,N
A02307,A
A02308,N
A02309,N
A02310,N
A02311,O
A02312,N
A02313,N
A02314,O
A02315,O
A02316,O
A02317,N
A02318,O
A02319,N
A02320,O
A02321,N
A02322,O
A02323,A
A02324,N
A02325,A
A02326,A
A02327,N
A02328,N
A02329,N
A02330,A
A02331,N
A02332,N
A02333,O
A02334,O
A02335,N
A02336,N
A02337,O
A02338,N
A02339,N
A02340,N
A02341,N
A02342,O
A02343,N
A02344,N
A02345,N
A02346,N
A02347,N
A02348,O
A02349,O
A02350,N
A02351,N
A02352,N
A02353,A
A02354,N
A02355,A
A02356,N
A02357,N
A02358,O
A02359,N
A02360,N
A02361,O
A02362,N
A02363,O
A02364,O
A02365,N
A02366,N
A02367,N
A02368,N
A02369,O
A02370,O
A02371,N
A02372,O
A02373,N
A02374,N
A02375,A
A02376,N
A02377,N
A02378,N
A02379,O
A02380,O
A02381,N
A02382,N
A02383,N
A02384,N
A02385,N
A02386,N
A02387,O
A02388,O
A02389,N
A02390,O
A02391,A
A02392,O
A02393,N
A02394,N
A02395,N
A02396,O
A02397,N
A02398,N
A02399,O
A02400,A
A02401,A
A02402,A
A02403,N
A02404,N
A02405,N
A02406,N
A02407,N
A02408,O
A02409,O
A02410,O
A02411,O
A02412,N
A02413,N
A02414,N
A02415,N
A02416,N
A02417,N
A02418,O
A02419,O
A02420,N
A02421,N
A02422,N
A02423,O
A02424,N
A02425,A
A02426,A
A02427,N
A02428,O
A02429,A
A02430,N
A02431,N
A02432,O
A02433,O
A02434,O
A02435,N
A02436,O
A02437,O
A02438,O
A02439,A
A02440,O
A02441,O
A02442,A
A02443,N
A02444,N
A02445,N
A02446,O
A02447,N
A02448,N
A02449,N
A02450,N
A02451,A
A02452,N
A02453,N
A02454,N
A02455,A
A02456,A
A02457,N
A02458,N
A02459,N
A02460,A
A02461,A
A02462,O
A02463,O
A02464,A
A02465,N
A02466,N
A02467,O
A02468,N
A02469,N
A02470,N
A02471,O
A02472,N
A02473,N
A02474,A
A02475,A
A02476,N
A02477,O
A02478,N
A02479,O
A02480,N
A02481,N
A02482,N
A02483,A
A02484,N
A02485,N
A02486,N
A02487,N
A02488,O
A02489,N
A02490,O
A02491,N
A02492,N
A02493,A
A02494,N
A02495,N
A02496,N
A02497,N
A02498,O
A02499,A
A02500,N
A02501,A
A02502,A
A02503,N
A02504,N
A02505,O
A02506,A
A02507,N
A02508,N
A02509,A
A02510,N
A02511,N
A02512,N
A02513,N
A02514,O
A02515,N
A02516,N
A02517,N
A02518,N
A02519,A
A02520,N
A02521,N
A02522,O
A02523,N
A02524,N
A02525,N
A02526,N
A02527,N
A02528,N
A02529,O
A02530,N
A02531,O
A02532,A
A02533,N
A02534,N
A02535,O
A02536,A
A02537,N
A02538,A
A02539,N
A02540,N
A02541,O
A02542,N
A02543,N
A02544,O
A02545,N
A02546,N
A02547,N
A02548,N
A02549,A
A02550,A
A02551,O
A02552,O
A02553,N
A02554,N
A02555,N
A02556,N
A02557,A
A02558,N
A02559,A
A02560,O
A02561,N
A02562,N
A02563,N
A02564,N
A02565,N
A02566,N
A02567,N
A02568,O
A02569,N
A02570,N
A02571,N
A02572,N
A02573,N
A02574,O
A02575,O
A02576,O
A02577,O
A02578,N
A02579,N
A02580,N
A02581,N
A02582,N
A02583,N
A02584,O
A02585,N
A02586,N
A02587,A
A02588,N
A02589,N
A02590,N
A02591,N
A02592,N
A02593,N
A02594,A
A02595,N
A02596,N
A02597,N
A02598,N
A02599,N
A02600,N
A02601,O
A02602,O
A02603,N
A02604,N
A02605,N
A02606,N
A02607,O
A02608,N
A02609,N
A02610,N
A02611,A
A02612,N
A02613,N
A02614,O
A02615,O
A02616,N
A02617,O
A02618,N
A02619,N
A02620,N
A02621,N
A02622,N
A02623,N
A02624,N
A02625,N
A02626,N
A02627,N
A02628,N
A02629,O
A02630,O
A02631,O
A02632,O
A02633,N
A02634,O
A02635,N
A02636,O
A02637,N
A02638,N
A02639,N
A02640,N
A02641,N
A02642,N
A02643,O
A02644,A
A02645,N
A02646,N
A02647,N
A02648,N
A02649,A
A02650,O
A02651,N
A02652,N
A02653,N
A02654,O
A02655,N
A02656,N
A02657,N
A02658,O
A02659,N
A02660,N
A02661,N
A02662,N
A02663,N
A02664,N
A02665,N
A02666,N
A02667,N
A02668,O
A02669,N
A02670,N
A02671,N
A02672,N
A02673,N
A02674,N
A02675,O
A02676,O
A02677,A
A02678,N
A02679,O
A02680,O
A02681,N
A02682,N
A02683,O
A02684,N
A02685,O
A02686,A
A02687,O
A02688,O
A02689,N
A02690,O
A02691,N
A02692,N
A02693,O
A02694,A
A02695,A
A02696,O
A02697,O
A02698,N
A02699,O
A02700,N
A02701,O
A02702,O
A02703,N
A02704,O
A02705,O
A02706,O
A02707,N
A02708,O
A02709,O
A02710,N
A02711,N
A02712,N
A02713,N
A02714,N
A02715,N
A02716,N
A02717,O
A02718,N
A02719,O
A02720,N
A02721,N
A02722,A
A02723,N
A02724,O
A02725,O
A02726,N
A02727,A
A02728,N
A02729,O
A02730,O
A02731,N
A02732,O
A02733,O
A02734,O
A02735,N
A02736,N
A02737,N
A02738,A
A02739,N
A02740,O
A02741,O
A02742,N
A02743,N
A02744,N
A02745,N
A02746,N
A02747,O
A02748,O
A02749,N
A02750,O
A02751,O
A02752,N
A02753,N
A02754,N
A02755,N
A02756,N
A02757,A
A02758,N
A02759,O
A02760,N
A02761,N
A02762,N
A02763,N
A02764,A
A02765,N
A02766,N
A02767,N
A02768,N
A02769,N
A02770,N
A02771,O
A02772,O
A02773,N
A02774,N
A02775,O
A02776,A
A02777,N
A02778,N
A02779,N
A02780,O
A02781,N
A02782,A
A02783,N
A02784,A
A02785,O
A02786,N
A02787,O
A02788,N
A02789,N
A02790,N
A02791,O
A02792,O
A02793,N
A02794,N
A02795,N
A02796,N
A02797,N
A02798,O
A02799,N
A02800,N
A02801,O
A02802,O
A02803,N
A02804,O
A02805,A
A02806,O
A02807,A
A02808,N
A02809,N
A02810,O
A02811,N
A02812,N
A02813,N
A02814,N
A02815,N
A02816,N
A02817,N
A02818,O
A02819,A
A02820,N
A02821,O
A02822,N
A02823,N
A02824,N
A02825,N
A02826,O
A02827,O
A02828,O
A02829,O
A02830,O
A02831,N
A02832,O
A02833,O
A02834,O
A02835,O
A02836,N
A02837,N
A02838,N
A02839,N
A02840,O
A02841,O
A02842,N
A02843,N
A02844,O
A02845,A
A02846,N
A02847,N
A02848,N
A02849,N
A02850,N
A02851,N
A02852,O
A02853,A
A02854,O
A02855,N
A02856,A
A02857,N
A02858,N
A02859,O
A02860,N
A02861,N
A02862,O
A02863,N
A02864,N
A02865,N
A02866,O
A02867,O
A02868,O
A02869,N
A02870,O
A02871,N
A02872,A
A02873,N
A02874,O
A02875,N
A02876,N
A02877,O
A02878,N
A02879,A
A02880,N
A02881,O
A02882,N
A02883,O
A02884,N
A02885,O
A02886,N
A02887,O
A02888,O
A02889,O
A02890,N
A02891,N
A02892,A
A02893,O
A02894,A
A02895,A
A02896,N
A02897,N
A02898,A
A02899,A
A02900,A
A02901,N
A02902,N
A02903,N
A02904,N
A02905,N
A02906,A
A02907,N
A02908,N
A02909,N
A02910,N
A02911,O
A02912,O
A02913,N
A02914,O
A02915,O
A02916,N
A02917,N
A02918,A
A02919,N
A02920,O
A02921,N
A02922,O
A02923,N
A02924,N
A02925,N
A02926,A
A02927,N
A02928,N
A02929,N
A02930,N
A02931,N
A02932,O
A02933,O
A02934,O
A02935,N
A02936,N
A02937,A
A02938,N
A02939,N
A02940,N
A02941,N
A02942,A
A02943,O
A02944,N
A02945,A
A02946,N
A02947,O
A02948,O
A02949,N
A02950,N
A02951,N
A02952,N
A02953,N
A02954,N
A02955,O
A02956,N
A02957,N
A02958,N
A02959,N
A02960,O
A02961,O
A02962,N
A02963,O
A02964,N
A02965,A
A02966,N
A02967,N
A02968,N
A02969,N
A02970,N
A02971,N
A02972,N
A02973,O
A02974,O
A02975,N
A02976,O
A02977,N
A02978,A
A02979,N
A02980,O
A02981,N
A02982,N
A02983,O
A02984,O
A02985,N
A02986,O
A02987,N
A02988,O
A02989,N
A02990,N
A02991,N
A02992,N
A02993,O
A02994,N
A02995,O
A02996,N
A02997,O
A02998,N
A02999,O
A03000,N
A03001,O
A03002,N
A03003,N
A03004,A
A03005,O
A03006,O
A03007,N
A03008,N
A03009,N
A03010,O
A03011,N
A03012,A
A03013,A
A03014,O
A03015,O
A03016,O
A03017,O
A03018,N
A03019,N
A03020,N
A03021,O
A03022,N
A03023,N
A03024,N
A03025,N
A03026,N
A03027,N
A03028,N
A03029,N
A03030,N
A03031,A
A03032,N
A03033,N
A03034,A
A03035,N
A03036,N
A03037,N
A03038,N
A03039,O
A03040,N
A03041,N
A03042,N
A03043,N
A03044,O
A03045,N
A03046,A
A03047,O
A03048,N
A03049,N
A03050,O
A03051,N
A03052,N
A03053,N
A03054,N
A03055,A
A03056,N
A03057,N
A03058,N
A03059,N
A03060,N
A03061,N
A03062,N
A03063,A
A03064,O
A03065,N
A03066,N
A03067,N
A03068,N
A03069,N
A03070,N
A03071,O
A03072,O
A03073,N
A03074,N
A03075,N
A03076,O
A03077,N
A03078,A
A03079,O
A03080,A
A03081,A
A03082,O
A03083,O
A03084,N
A03085,N
A03086,N
A03087,O
A03088,N
A03089,O
A03090,O
A03091,N
A03092,N
A03093,N
A03094,N
A03095,O
A03096,N
A03097,N
A03098,N
A03099,N
A03100,N
A03101,A
A03102,N
A03103,O
A03104,N
A03105,N
A03106,N
A03107,N
A03108,N
A03109,N
A03110,O
A03111,O
A03112,O
A03113,O
A03114,N
A03115,N
A03116,O
A03117,O
A03118,O
A03119,N
A03120,N
A03121,N
A03122,N
A03123,N
A03124,N
A03125,N
A03126,A
A03127,O
A03128,A
A03129,N
A03130,N
A03131,N
A03132,N
A03133,N
A03134,N
A03135,N
A03136,N
A03137,O
A03138,N
A03139,N
A03140,N
A03141,N
A03142,O
A03143,N
A03144,N
A03145,N
A03146,N
A03147,N
A03148,O
A03149,O
A03150,N
A03151,N
A03152,A
A03153,O
A03154,A
A03155,N
A03156,O
A03157,N
A03158,N
A03159,N
A03160,N
A03161,A
A03162,O
A03163,N
A03164,N
A03165,N
A03166,N
A03167,O
A03168,N
A03169,O
A03170,N
A03171,N
A03172,N
A03173,N
A03174,O
A03175,N
A03176,N
A03177,O
A03178,N
A03179,N
A03180,N
A03181,O
A03182,O
A03183,O
A03184,N
A03185,A
A03186,N
A03187,A
A03188,N
A03189,N
A03190,N
A03191,N
A03192,O
A03193,N
A03194,N
A03195,O
A03196,N
A03197,N
A03198,O
A03199,O
A03200,N
A03201,N
A03202,O
A03203,N
A03204,N
A03205,N
A03206,N
A03207,N
A03208,O
A03209,N
A03210,O
A03211,N
A03212,A
A03213,N
A03214,O
A03215,O
A03216,O
A03217,N
A03218,N
A03219,N
A03220,O
A03221,A
A03222,N
A03223,A
A03224,N
A03225,O
A03226,N
A03227,N
A03228,O
A03229,O
A03230,A
A03231,N
A03232,N
A03233,O
A03234,N
A03235,N
A03236,N
A03237,N
A03238,N
A03239,O
A03240,N
A03241,A
A03242,N
A03243,N
A03244,N
A03245,O
A03246,A
A03247,N
A03248,N
A03249,N
A03250,O
A03251,O
A03252,N
A03253,N
A03254,O
A03255,N
A03256,N
A03257,N
A03258,O
A03259,N
A03260,N
A03261,N
A03262,O
A03263,N
A03264,N
A03265,N
A03266,O
A03267,O
A03268,N
A03269,O
A03270,N
A03271,O
A03272,N
A03273,A
A03274,N
A03275,O
A03276,O
A03277,N
A03278,O
A03279,N
A03280,N
A03281,N
A03282,N
A03283,O
A03284,N
A03285,N
A03286,O
A03287,O
A03288,N
A03289,N
A03290,O
A03291,O
A03292,N
A03293,O
A03294,O
A03295,A
A03296,N
A03297,N
A03298,N
A03299,N
A03300,O
A03301,N
A03302,N
A03303,N
A03304,N
A03305,N
A03306,A
A03307,N
A03308,O
A03309,O
A03310,A
A03311,O
A03312,N
A03313,N
A03314,N
A03315,N
A03316,O
A03317,N
A03318,O
A03319,A
A03320,N
A03321,N
A03322,N
A03323,N
A03324,O
A03325,N
A03326,N
A03327,N
A03328,N
A03329,O
A03330,O
A03331,N
A03332,O
A03333,O
A03334,N
A03335,O
A03336,N
A03337,N
A03338,N
A03339,O
A03340,N
A03341,O
A03342,A
A03343,N
A03344,N
A03345,N
A03346,A
A03347,N
A03348,N
A03349,N
A03350,N
A03351,N
A03352,O
A03353,N
A03354,O
A03355,O
A03356,N
A03357,N
A03358,A
A03359,N
A03360,N
A03361,N
A03362,N
A03363,O
A03364,N
A03365,O
A03366,N
A03367,N
A03368,O
A03369,N
A03370,O
A03371,O
A03372,N
A03373,O
A03374,A
A03375,N
A03376,N
A03377,N
A03378,N
A03379,N
A03380,N
A03381,N
A03382,A
A03383,N
A03384,N
A03385,N
A03386,N
A03387,N
A03388,N
A03389,A
A03390,N
A03391,A
A03392,O
A03393,O
A03394,N
A03395,N
A03396,N
A03397,N
A03398,N
A03399,O
A03400,N
A03401,N
A03402,N
A03403,O
A03404,N
A03405,N
A03406,O
A03407,N
A03408,O
A03409,N
A03410,O
A03411,N
A03412,N
A03413,N
A03414,N
A03415,N
A03416,O
A03417,O
A03418,O
A03419,N
A03420,N
A03421,O
A03422,O
A03423,N
A03424,O
A03425,N
A03426,N
A03427,O
A03428,N
A03429,N
A03430,N
A03431,N
A03432,N
A03433,N
A03434,N
A03435,N
A03436,O
A03437,A
A03438,N
A03439,O
A03440,N
A03441,N
A03442,N
A03443,O
A03444,N
A03445,N
A03446,A
A03447,O
A03448,N
A03449,N
A03450,N
A03451,N
A03452,N
A03453,N
A03454,N
A03455,N
A03456,N
A03457,N
A03458,N
A03459,N
A03460,A
A03461,O
A03462,N
A03463,O
A03464,O
A03465,N
A03466,N
A03467,A
A03468,A
A03469,A
A03470,N
A03471,N
A03472,N
A03473,N
A03474,O
A03475,O
A03476,N
A03477,N
A03478,N
A03479,N
A03480,N
A03481,O
A03482,N
A03483,N
A03484,N
A03485,N
A03486,O
A03487,N
A03488,N
A03489,O
A03490,O
A03491,N
A03492,N
A03493,O
A03494,N
A03495,N
A03496,O
A03497,A
A03498,A
A03499,A
A03500,O
A03501,A
A03502,A
A03503,A
A03504,N
A03505,N
A03506,O
A03507,N
A03508,A
A03509,N
A03510,N
A03511,N
A03512,N
A03513,O
A03514,O
A03515,N
A03516,O
A03517,O
A03518,N
A03519,O
A03520,N
A03521,O
A03522,N
A03523,N
A03524,N
A03525,O
A03526,N
A03527,A
A03528,O
A03529,N
A03530,N
A03531,N
A03532,O
A03533,N
A03534,N
A03535,N
A03536,N
A03537,O
A03538,O
A03539,O
A03540,O
A03541,O
A03542,N
A03543,N
A03544,N
A03545,N
A03546,O
A03547,N
A03548,A
A03549,O
A03550,N
A03551,O
A03552,O
A03553,N
A03554,N
A03555,N
A03556,O
A03557,N
A03558,N
A03559,N
A03560,N
A03561,N
A03562,N
A03563,N
A03564,N
A03565,O
A03566,N
A03567,A
A03568,N
A03569,A
A03570,N
A03571,O
A03572,N
A03573,N
A03574,N
A03575,O
A03576,A
A03577,O
A03578,O
A03579,O
A03580,O
A03581,N
A03582,O
A03583,O
A03584,A
A03585,N
A03586,N
A03587,N
A03588,N
A03589,N
A03590,N
A03591,O
A03592,A
A03593,N
A03594,N
A03595,N
A03596,O
A03597,O
A03598,O
A03599,N
A03600,N
A03601,O
A03602,N
A03603,N
A03604,N
A03605,A
A03606,A
A03607,N
A03608,N
A03609,O
A03610,A
A03611,N
A03612,O
A03613,N
A03614,O
A03615,O
A03616,O
A03617,N
A03618,N
A03619,O
A03620,O
A03621,O
A03622,N
A03623,N
A03624,O
A03625,N
A03626,N
A03627,N
A03628,A
A03629,A
A03630,O
A03631,N
A03632,N
A03633,O
A03634,A
A03635,A
A03636,N
A03637,N
A03638,N
A03639,N
A03640,O
A03641,N
A03642,N
A03643,O
A03644,N
A03645,N
A03646,O
A03647,N
A03648,N
A03649,N
A03650,N
A03651,N
A03652,N
A03653,O
A03654,N
A03655,N
A03656,N
A03657,A
A03658,N
A03659,O
A03660,A
A03661,O
A03662,N
A03663,N
A03664,O
A03665,O
A03666,N
A03667,O
A03668,N
A03669,O
A03670,A
A03671,A
A03672,N
A03673,N
A03674,N
A03675,N
A03676,N
A03677,O
A03678,N
A03679,N
A03680,N
A03681,N
A03682,N
A03683,O
A03684,N
A03685,O
A03686,N
A03687,O
A03688,N
A03689,N
A03690,N
A03691,A
A03692,O
A03693,N
A03694,N
A03695,N
A03696,O
A03697,N
A03698,N
A03699,N
A03700,N
A03701,O
A03702,N
A03703,N
A03704,N
A03705,O
A03706,N
A03707,A
A03708,O
A03709,N
A03710,N
A03711,N
A03712,N
A03713,N
A03714,O
A03715,N
A03716,N
A03717,O
A03718,N
A03719,O
A03720,N
A03721,O
A03722,N
A03723,O
A03724,O
A03725,O
A03726,N
A03727,O
A03728,N
A03729,N
A03730,O
A03731,N
A03732,O
A03733,N
A03734,N
A03735,N
A03736,O
A03737,N
A03738,O
A03739,O
A03740,O
A03741,N
A03742,O
A03743,N
A03744,N
A03745,O
A03746,A
A03747,N
A03748,N
A03749,N
A03750,N
A03751,N
A03752,O
A03753,N
A03754,N
A03755,N
A03756,O
A03757,O
A03758,O
A03759,N
A03760,A
A03761,N
A03762,N
A03763,O
A03764,N
A03765,N
A03766,O
A03767,N
A03768,N
A03769,N
A03770,N
A03771,O
A03772,N
A03773,O
A03774,N
A03775,O
A03776,N
A03777,N
A03778,O
A03779,N
A03780,O
A03781,O
A03782,A
A03783,N
A03784,N
A03785,N
A03786,N
A03787,N
A03788,N
A03789,O
A03790,N
A03791,N
A03792,A
A03793,O
A03794,O
A03795,N
A03796,N
A03797,O
A03798,O
A03799,N
A03800,N
A03801,N
A03802,O
A03803,N
A03804,N
A03805,O
A03806,N
A03807,O
A03808,O
A03809,N
A03810,O
A03811,N
A03812,O
A03813,N
A03814,O
A03815,N
A03816,O
A03817,O
A03818,N
A03819,N
A03820,O
A03821,N
A03822,O
A03823,N
A03824,N
A03825,N
A03826,O
A03827,A
A03828,O
A03829,O
A03830,O
A03831,O
A03832,N
A03833,O
A03834,A
A03835,N
A03836,A
A03837,O
A03838,A
A03839,N
A03840,N
A03841,A
A03842,O
A03843,N
A03844,A
A03845,N
A03846,O
A03847,O
A03848,O
A03849,O
A03850,N
A03851,O
A03852,A
A03853,N
A03854,N
A03855,N
A03856,N
A03857,A
A03858,N
A03859,N
A03860,N
A03861,O
A03862,O
A03863,A
A03864,N
A03865,N
A03866,N
A03867,N
A03868,N
A03869,O
A03870,O
A03871,N
A03872,O
A03873,N
A03874,N
A03875,N
A03876,N
A03877,N
A03878,N
A03879,O
A03880,O
A03881,N
A03882,N
A03883,N
A03884,N
A03885,N
A03886,N
A03887,N
A03888,N
A03889,N
A03890,O
A03891,N
A03892,N
A03893,N
A03894,N
A03895,N
A03896,N
A03897,N
A03898,O
A03899,N
A03900,N
A03901,N
A03902,N
A03903,N
A03904,O
A03905,A
A03906,N
A03907,N
A03908,N
A03909,N
A03910,A
A03911,N
A03912,N
A03913,O
A03914,O
A03915,N
A03916,N
A03917,N
A03918,N
A03919,O
A03920,O
A03921,N
A03922,N
A03923,N
A03924,O
A03925,N
A03926,N
A03927,N
A03928,N
A03929,N
A03930,N
A03931,O
A03932,N
A03933,N
A03934,O
A03935,O
A03936,O
A03937,O
A03938,O
A03939,A
A03940,N
A03941,N
A03942,N
A03943,N
A03944,O
A03945,N
A03946,O
A03947,O
A03948,N
A03949,N
A03950,N
A03951,N
A03952,N
A03953,N
A03954,A
A03955,N
A03956,N
A03957,N
A03958,N
A03959,O
A03960,A
A03961,N
A03962,N
A03963,N
A03964,N
A03965,O
A03966,N
A03967,N
A03968,N
A03969,O
A03970,O
A03971,N
A03972,N
A03973,N
A03974,N
A03975,N
A03976,O
A03977,O
A03978,N
A03979,A
A03980,O
A03981,N
A03982,N
A03983,A
A03984,N
A03985,N
A03986,O
A03987,N
A03988,N
A03989,N
A03990,N
A03991,N
A03992,N
A03993,N
A03994,O
A03995,N
A03996,O
A03997,N
A03998,N
A03999,O
A04000,N
A04001,O
A04002,O
A04003,O
A04004,N
A04005,O
A04006,N
A04007,N
A04008,N
A04009,N
A04010,N
A04011,N
A04012,N
A04013,O
A04014,O
A04015,N
A04016,A
A04017,N
A04018,O
A04019,A
A04020,O
A04021,O
A04022,N
A04023,N
A04024,N
A04025,A
A04026,N
A04027,N
A04028,N
A04029,O
A04030,A
A04031,O
A04032,N
A04033,N
A04034,N
A04035,N
A04036,N
A04037,N
A04038,O
A04039,O
A04040,N
A04041,N
A04042,N
A04043,N
A04044,N
A04045,N
A04046,N
A04047,O
A04048,A
A04049,O
A04050,N
A04051,N
A04052,O
A04053,N
A04054,N
A04055,O
A04056,N
A04057,O
A04058,N
A04059,N
A04060,N
A04061,N
A04062,O
A04063,O
A04064,N
A04065,N
A04066,N
A04067,N
A04068,N
A04069,A
A04070,N
A04071,N
A04072,N
A04073,N
A04074,O
A04075,N
A04076,N
A04077,N
A04078,O
A04079,N
A04080,N
A04081,O
A04082,O
A04083,N
A04084,N
A04085,O
A04086,O
A04087,N
A04088,N
A04089,N
A04090,N
A04091,N
A04092,O
A04093,N
A04094,N
A04095,N
A04096,O
A04097,N
A04098,O
A04099,N
A04100,N
A04101,N
A04102,N
A04103,O
A04104,O
A04105,N
A04106,N
A04107,N
A04108,O
A04109,O
A04110,O
A04111,N
A04112,N
A04113,O
A04114,N
A04115,N
A04116,N
A04117,A
A04118,N
A04119,N
A04120,N
A04121,N
A04122,A
A04123,A
A04124,N
A04125,N
A04126,N
A04127,N
A04128,A
A04129,O
A04130,O
A04131,N
A04132,N
A04133,O
A04134,N
A04135,O
A04136,A
A04137,O
A04138,N
A04139,N
A04140,N
A04141,N
A04142,N
A04143,N
A04144,N
A04145,N
A04146,N
A04147,N
A04148,N
A04149,O
A04150,O
A04151,N
A04152,O
A04153,N
A04154,N
A04155,N
A04156,N
A04157,N
A04158,N
A04159,O
A04160,N
A04161,N
A04162,N
A04163,N
A04164,O
A04165,N
A04166,N
A04167,O
A04168,O
A04169,N
A04170,O
A04171,N
A04172,N
A04173,O
A04174,O
A04175,O
A04176,O
A04177,O
A04178,N
A04179,N
A04180,N
A04181,N
A04182,N
A04183,N
A04184,O
A04185,O
A04186,O
A04187,N
A04188,N
A04189,N
A04190,N
A04191,N
A04192,N
A04193,N
A04194,N
A04195,O
A04196,O
A04197,N
A04198,O
A04199,N
A04200,O
A04201,A
A04202,N
A04203,N
A04204,N
A04205,N
A04206,N
A04207,A
A04208,N
A04209,O
A04210,N
A04211,N
A04212,N
A04213,N
A04214,O
A04215,O
A04216,O
A04217,N
A04218,A
A04219,N
A04220,A
A04221,N
A04222,O
A04223,N
A04224,N
A04225,N
A04226,N
A04227,O
A04228,O
A04229,N
A04230,A
A04231,O
A04232,O
A04233,N
A04234,N
A04235,N
A04236,N
A04237,N
A04238,O
A04239,N
A04240,O
A04241,O
A04242,O
A04243,N
A04244,O
A04245,N
A04246,N
A04247,N
A04248,N
A04249,O
A04250,O
A04251,O
A04252,O
A04253,N
A04254,O
A04255,N
A04256,N
A04257,O
A04258,O
A04259,O
A04260,N
A04261,A
A04262,N
A04263,N
A04264,O
A04265,N
A04266,O
A04267,N
A04268,O
A04269,N
A04270,N
A04271,O
A04272,A
A04273,N
A04274,O
A04275,N
A04276,N
A04277,N
A04278,N
A04279,O
A04280,N
A04281,N
A04282,O
A04283,N
A04284,O
A04285,N
A04286,O
A04287,N
A04288,O
A04289,N
A04290,O
A04291,N
A04292,N
A04293,O
A04294,N
A04295,N
A04296,O
A04297,N
A04298,N
A04299,A
A04300,N
A04301,N
A04302,N
A04303,O
A04304,N
A04305,N
A04306,N
A04307,N
A04308,O
A04309,O
A04310,O
A04311,N
A04312,N
A04313,N
A04314,N
A04315,O
A04316,O
A04317,N
A04318,O
A04319,N
A04320,O
A04321,N
A04322,O
A04323,N
A04324,O
A04325,O
A04326,N
A04327,N
A04328,N
A04329,O
A04330,N
A04331,O
A04332,N
A04333,N
A04334,N
A04335,O
A04336,N
A04337,N
A04338,N
A04339,N
A04340,N
A04341,N
A04342,N
A04343,N
A04344,N
A04345,O
A04346,O
A04347,N
A04348,N
A04349,A
A04350,A
A04351,N
A04352,N
A04353,N
A04354,N
A04355,N
A04356,O
A04357,O
A04358,N
A04359,N
A04360,O
A04361,O
A04362,O
A04363,O
A04364,N
A04365,O
A04366,O
A04367,N
A04368,N
A04369,O
A04370,O
A04371,N
A04372,O
A04373,N
A04374,O
A04375,N
A04376,N
A04377,N
A04378,N
A04379,N
A04380,N
A04381,N
A04382,N
A04383,A
A04384,O
A04385,N
A04386,O
A04387,O
A04388,N
A04389,N
A04390,N
A04391,N
A04392,N
A04393,N
A04394,N
A04395,N
A04396,N
A04397,N
A04398,A
A04399,N
A04400,O
A04401,N
A04402,N
A04403,N
A04404,N
A04405,N
A04406,N
A04407,O
A04408,N
A04409,N
A04410,N
A04411,N
A04412,N
A04413,N
A04414,O
A04415,O
A04416,N
A04417,O
A04418,O
A04419,N
A04420,N
A04421,O
A04422,N
A04423,N
A04424,O
A04425,N
A04426,N
A04427,O
A04428,O
A04429,O
A04430,N
A04431,A
A04432,N
A04433,O
A04434,N
A04435,O
A04436,N
A04437,N
A04438,N
A04439,N
A04440,O
A04441,O
A04442,N
A04443,O
A04444,N
A04445,N
A04446,N
A04447,N
A04448,N
A04449,N
A04450,N
A04451,O
A04452,O
A04453,N
A04454,A
A04455,N
A04456,N
A04457,N
A04458,O
A04459,N
A04460,O
A04461,N
A04462,N
A04463,O
A04464,N
A04465,N
A04466,O
A04467,N
A04468,N
A04469,O
A04470,O
A04471,O
A04472,N
A04473,A
A04474,N
A04475,N
A04476,O
A04477,N
A04478,N
A04479,N
A04480,N
A04481,N
A04482,N
A04483,N
A04484,N
A04485,N
A04486,N
A04487,N
A04488,N
A04489,N
A04490,N
A04491,O
A04492,N
A04493,A
A04494,O
A04495,O
A04496,O
A04497,N
A04498,N
A04499,N
A04500,N
A04501,O
A04502,N
A04503,O
A04504,N
A04505,N
A04506,N
A04507,N
A04508,A
A04509,O
A04510,N
A04511,N
A04512,O
A04513,O
A04514,O
A04515,N
A04516,A
A04517,N
A04518,N
A04519,O
A04520,O
A04521,O
A04522,O
A04523,N
A04524,O
A04525,N
A04526,N
A04527,O
A04528,N
A04529,O
A04530,N
A04531,O
A04532,N
A04533,O
A04534,N
A04535,N
A04536,N
A04537,N
A04538,N
A04539,O
A04540,N
A04541,O
A04542,N
A04543,N
A04544,O
A04545,O
A04546,N
A04547,N
A04548,N
A04549,N
A04550,O
A04551,N
A04552,N
A04553,N
A04554,N
A04555,O
A04556,N
A04557,O
A04558,N
A04559,N
A04560,A
A04561,N
A04562,O
A04563,N
A04564,N
A04565,N
A04566,O
A04567,N
A04568,O
A04569,O
A04570,N
A04571,O
A04572,N
A04573,A
A04574,O
A04575,O
A04576,O
A04577,N
A04578,N
A04579,N
A04580,N
A04581,O
A04582,N
A04583,N
A04584,O
A04585,N
A04586,O
A04587,A
A04588,O
A04589,N
A04590,N
A04591,A
A04592,O
A04593,N
A04594,A
A04595,N
A04596,A
A04597,O
A04598,N
A04599,N
A04600,O
A04601,N
A04602,N
A04603,N
A04604,A
A04605,O
A04606,N
A04607,O
A04608,N
A04609,N
A04610,N
A04611,N
A04612,A
A04613,N
A04614,N
A04615,N
A04616,N
A04617,N
A04618,N
A04619,N
A04620,N
A04621,O
A04622,N
A04623,O
A04624,N
A04625,N
A04626,N
A04627,N
A04628,N
A04629,N
A04630,O
A04631,N
A04632,N
A04633,N
A04634,N
A04635,O
A04636,N
A04637,N
A04638,A
A04639,N
A04640,N
A04641,O
A04642,N
A04643,O
A04644,O
A04645,N
A04646,N
A04647,N
A04648,N
A04649,N
A04650,N
A04651,N
A04652,O
A04653,O
A04654,N
A04655,N
A04656,N
A04657,N
A04658,A
A04659,N
A04660,N
A04661,O
A04662,N
A04663,O
A04664,N
A04665,O
A04666,N
A04667,O
A04668,N
A04669,N
A04670,N
A04671,N
A04672,N
A04673,O
A04674,O
A04675,O
A04676,O
A04677,N
A04678,O
A04679,O
A04680,N
A04681,N
A04682,O
A04683,N
A04684,N
A04685,O
A04686,N
A04687,N
A04688,N
A04689,N
A04690,N
A04691,N
A04692,N
A04693,O
A04694,N
A04695,N
A04696,N
A04697,A
A04698,N
A04699,N
A04700,N
A04701,O
A04702,O
A04703,N
A04704,A
A04705,N
A04706,N
A04707,O
A04708,N
A04709,N
A04710,O
A04711,N
A04712,A
A04713,N
A04714,N
A04715,O
A04716,N
A04717,N
A04718,N
A04719,O
A04720,O
A04721,N
A04722,O
A04723,O
A04724,N
A04725,N
A04726,N
A04727,N
A04728,N
A04729,O
A04730,N
A04731,N
A04732,O
A04733,N
A04734,O
A04735,O
A04736,O
A04737,O
A04738,O
A04739,N
A04740,N
A04741,O
A04742,O
A04743,N
A04744,N
A04745,O
A04746,N
A04747,N
A04748,N
A04749,N
A04750,O
A04751,N
A04752,N
A04753,O
A04754,N
A04755,N
A04756,O
A04757,N
A04758,N
A04759,N
A04760,N
A04761,O
A04762,A
A04763,O
A04764,N
A04765,N
A04766,N
A04767,N
A04768,N
A04769,O
A04770,N
A04771,A
A04772,N
A04773,N
A04774,N
A04775,N
A04776,N
A04777,N
A04778,N
A04779,N
A04780,O
A04781,N
A04782,N
A04783,O
A04784,N
A04785,N
A04786,N
A04787,N
A04788,N
A04789,N
A04790,N
A04791,N
A04792,N
A04793,N
A04794,N
A04795,N
A04796,O
A04797,O
A04798,N
A04799,N
A04800,N
A04801,N
A04802,N
A04803,O
A04804,N
A04805,O
A04806,N
A04807,N
A04808,N
A04809,O
A04810,N
A04811,N
A04812,O
A04813,N
A04814,N
A04815,A
A04816,A
A04817,N
A04818,N
A04819,O
A04820,O
A04821,N
A04822,O
A04823,N
A04824,N
A04825,O
A04826,N
A04827,N
A04828,O
A04829,O
A04830,O
A04831,N
A04832,O
A04833,N
A04834,N
A04835,O
A04836,O
A04837,N
A04838,O
A04839,N
A04840,O
A04841,N
A04842,N
A04843,N
A04844,O
A04845,N
A04846,O
A04847,N
A04848,N
A04849,N
A04850,N
A04851,N
A04852,O
A04853,O
A04854,N
A04855,N
A04856,N
A04857,N
A04858,O
A04859,N
A04860,N
A04861,A
A04862,O
A04863,A
A04864,N
A04865,O
A04866,N
A04867,O
A04868,N
A04869,O
A04870,N
A04871,N
A04872,O
A04873,O
A04874,O
A04875,O
A04876,N
A04877,O
A04878,N
A04879,N
A04880,N
A04881,N
A04882,N
A04883,N
A04884,N
A04885,N
A04886,N
A04887,N
A04888,O
A04889,O
A04890,O
A04891,A
A04892,O
A04893,O
A04894,N
A04895,O
A04896,N
A04897,A
A04898,N
A04899,O
A04900,N
A04901,A
A04902,N
A04903,N
A04904,O
A04905,A
A04906,N
A04907,N
A04908,N
A04909,O
A04910,N
A04911,N
A04912,O
A04913,O
A04914,O
A04915,O
A04916,O
A04917,N
A04918,O
A04919,N
A04920,N
A04921,N
A04922,N
A04923,N
A04924,A
A04925,N
A04926,N
A04927,O
A04928,N
A04929,N
A04930,N
A04931,O
A04932,N
A04933,O
A04934,N
A04935,N
A04936,A
A04937,N
A04938,N
A04939,O
A04940,N
A04941,O
A04942,A
A04943,A
A04944,O
A04945,N
A04946,O
A04947,N
A04948,O
A04949,N
A04950,N
A04951,O
A04952,A
A04953,N
A04954,N
A04955,O
A04956,N
A04957,N
A04958,N
A04959,N
A04960,O
A04961,N
A04962,O
A04963,N
A04964,N
A04965,N
A04966,O
A04967,N
A04968,N
A04969,N
A04970,O
A04971,O
A04972,N
A04973,O
A04974,N
A04975,N
A04976,O
A04977,O
A04978,N
A04979,N
A04980,O
A04981,O
A04982,O
A04983,N
A04984,N
A04985,N
A04986,O
A04987,N
A04988,N
A04989,O
A04990,N
A04991,N
A04992,N
A04993,N
A04994,N
A04995,N
A04996,N
A04997,N
A04998,O
A04999,O
A05000,N
A05001,N
A05002,N
A05003,N
A05004,O
A05005,A
A05006,N
A05007,N
A05008,N
A05009,N
A05010,O
A05011,N
A05012,O
A05013,N
A05014,A
A05015,O
A05016,O
A05017,O
A05018,O
A05019,O
A05020,O
A05021,N
A05022,N
A05023,N
A05024,N
A05025,N
A05026,O
A05027,O
A05028,N
A05029,O
A05030,O
A05031,N
A05032,O
A05033,N
A05034,N
A05035,N
A05036,N
A05037,O
A05038,N
A05039,O
A05040,N
A05041,N
A05042,N
A05043,A
A05044,O
A05045,O
A05046,O
A05047,O
A05048,N
A05049,A
A05050,O
A05051,N
A05052,N
A05053,O
A05054,O
A05055,N
A05056,O
A05057,N
A05058,N
A05059,A
A05060,O
A05061,N
A05062,N
A05063,O
A05064,O
A05065,N
A05066,O
A05067,O
A05068,O
A05069,N
A05070,O
A05071,N
A05072,O
A05073,N
A05074,N
A05075,N
A05076,O
A05077,N
A05078,N
A05079,O
A05080,N
A05081,A
A05082,N
A05083,N
A05084,N
A05085,N
A05086,O
A05087,N
A05088,N
A05089,O
A05090,O
A05091,N
A05092,N
A05093,O
A05094,N
A05095,N
A05096,O
A05097,N
A05098,O
A05099,O
A05100,O
A05101,N
A05102,N
A05103,O
A05104,N
A05105,N
A05106,N
A05107,N
A05108,O
A05109,N
A05110,N
A05111,N
A05112,N
A05113,O
A05114,N
A05115,N
A05116,A
A05117,N
A05118,N
A05119,A
A05120,N
A05121,N
A05122,N
A05123,O
A05124,N
A05125,O
A05126,N
A05127,N
A05128,N
A05129,O
A05130,N
A05131,N
A05132,O
A05133,N
A05134,O
A05135,O
A05136,N
A05137,N
A05138,A
A05139,O
A05140,A
A05141,N
A05142,N
A05143,N
A05144,O
A05145,N
A05146,N
A05147,O
A05148,N
A05149,A
A05150,O
A05151,N
A05152,N
A05153,O
A05154,N
A05155,N
A05156,N
A05157,N
A05158,N
A05159,N
A05160,O
A05161,N
A05162,N
A05163,O
A05164,N
A05165,N
A05166,O
A05167,O
A05168,N
A05169,N
A05170,O
A05171,O
A05172,A
A05173,N
A05174,N
A05175,O
A05176,O
A05177,N
A05178,O
A05179,N
A05180,O
A05181,O
A05182,N
A05183,N
A05184,N
A05185,N
A05186,O
A05187,N
A05188,N
A05189,O
A05190,A
A05191,N
A05192,N
A05193,N
A05194,N
A05195,N
A05196,N
A05197,O
A05198,N
A05199,N
A05200,A
A05201,O
A05202,N
A05203,N
A05204,N
A05205,N
A05206,O
A05207,O
A05208,O
A05209,N
A05210,N
A05211,O
A05212,N
A05213,O
A05214,O
A05215,N
A05216,O
A05217,O
A05218,N
A05219,N
A05220,O
A05221,N
A05222,N
A05223,N
A05224,O
A05225,N
A05226,N
A05227,N
A05228,A
A05229,N
A05230,A
A05231,N
A05232,O
A05233,O
A05234,O
A05235,N
A05236,N
A05237,A
A05238,A
A05239,A
A05240,N
A05241,O
A05242,O
A05243,O
A05244,O
A05245,N
A05246,N
A05247,O
A05248,N
A05249,N
A05250,N
A05251,N
A05252,O
A05253,N
A05254,A
A05255,N
A05256,O
A05257,N
A05258,O
A05259,N
A05260,N
A05261,N
A05262,N
A05263,N
A05264,N
A05265,A
A05266,O
A05267,N
A05268,A
A05269,O
A05270,A
A05271,N
A05272,N
A05273,N
A05274,O
A05275,N
A05276,O
A05277,O
A05278,N
A05279,N
A05280,O
A05281,A
A05282,O
A05283,A
A05284,N
A05285,O
A05286,N
A05287,N
A05288,N
A05289,A
A05290,N
A05291,N
A05292,N
A05293,A
A05294,N
A05295,N
A05296,N
A05297,O
A05298,N
A05299,N
A05300,O
A05301,O
A05302,O
A05303,N
A05304,N
A05305,O
A05306,O
A05307,N
A05308,O
A05309,O
A05310,O
A05311,O
A05312,O
A05313,N
A05314,N
A05315,N
A05316,O
A05317,N
A05318,N
A05319,O
A05320,N
A05321,N
A05322,N
A05323,N
A05324,N
A05325,O
A05326,N
A05327,O
A05328,N
A05329,O
A05330,N
A05331,O
A05332,O
A05333,N
A05334,N
A05335,N
A05336,O
A05337,N
A05338,N
A05339,N
A05340,O
A05341,O
A05342,N
A05343,O
A05344,N
A05345,N
A05346,N
A05347,N
A05348,N
A05349,N
A05350,O
A05351,O
A05352,O
A05353,N
A05354,N
A05355,O
A05356,O
A05357,N
A05358,N
A05359,O
A05360,O
A05361,N
A05362,O
A05363,N
A05364,O
A05365,O
A05366,A
A05367,O
A05368,N
A05369,N
A05370,N
A05371,N
A05372,N
A05373,O
A05374,N
A05375,N
A05376,O
A05377,N
A05378,N
A05379,O
A05380,N
A05381,O
A05382,N
A05383,O
A05384,N
A05385,N
A05386,N
A05387,N
A05388,N
A05389,N
A05390,O
A05391,N
A05392,A
A05393,O
A05394,N
A05395,N
A05396,N
A05397,N
A05398,O
A05399,N
A05400,O
A05401,O
A05402,N
A05403,N
A05404,N
A05405,N
A05406,N
A05407,N
A05408,O
A05409,N
A05410,A
A05411,N
A05412,N
A05413,N
A05414,N
A05415,O
A05416,N
A05417,N
A05418,N
A05419,O
A05420,O
A05421,N
A05422,N
A05423,N
A05424,N
A05425,O
A05426,N
A05427,N
A05428,O
A05429,N
A05430,N
A05431,A
A05432,N
A05433,A
A05434,O
A05435,O
A05436,O
A05437,O
A05438,N
A05439,N
A05440,N
A05441,N
A05442,O
A05443,O
A05444,O
A05445,N
A05446,N
A05447,N
A05448,O
A05449,N
A05450,N
A05451,N
A05452,N
A05453,O
A05454,O
A05455,N
A05456,N
A05457,N
A05458,A
A05459,A
A05460,N
A05461,N
A05462,O
A05463,N
A05464,O
A05465,A
A05466,N
A05467,N
A05468,N
A05469,N
A05470,A
A05471,O
A05472,N
A05473,N
A05474,N
A05475,N
A05476,A
A05477,N
A05478,N
A05479,N
A05480,N
A05481,O
A05482,N
A05483,O
A05484,O
A05485,O
A05486,A
A05487,N
A05488,N
A05489,O
A05490,N
A05491,N
A05492,O
A05493,N
A05494,O
A05495,A
A05496,N
A05497,N
A05498,N
A05499,N
A05500,A
A05501,N
A05502,O
A05503,O
A05504,N
A05505,N
A05506,N
A05507,O
A05508,N
A05509,O
A05510,N
A05511,A
A05512,N
A05513,N
A05514,O
A05515,A
A05516,N
A05517,O
A05518,N
A05519,N
A05520,O
A05521,N
A05522,O
A05523,O
A05524,A
A05525,N
A05526,N
A05527,O
A05528,O
A05529,N
A05530,N
A05531,N
A05532,N
A05533,N
A05534,N
A05535,N
A05536,N
A05537,N
A05538,N
A05539,O
A05540,O
A05541,N
A05542,O
A05543,N
A05544,N
A05545,N
A05546,O
A05547,A
A05548,N
A05549,O
A05550,N
A05551,O
A05552,N
A05553,N
A05554,N
A05555,N
A05556,O
A05557,O
A05558,O
A05559,N
A05560,N
A05561,N
A05562,N
A05563,N
A05564,A
A05565,N
A05566,N
A05567,N
A05568,O
A05569,N
A05570,A
A05571,O
A05572,A
A05573,N
A05574,N
A05575,N
A05576,N
A05577,N
A05578,O
A05579,N
A05580,N
A05581,N
A05582,N
A05583,N
A05584,N
A05585,O
A05586,O
A05587,O
A05588,N
A05589,O
A05590,O
A05591,O
A05592,O
A05593,O
A05594,O
A05595,O
A05596,N
A05597,O
A05598,O
A05599,O
A05600,O
A05601,N
A05602,N
A05603,O
A05604,N
A05605,N
A05606,N
A05607,N
A05608,O
A05609,O
A05610,N
A05611,N
A05612,N
A05613,N
A05614,O
A05615,N
A05616,O
A05617,N
A05618,O
A05619,O
A05620,O
A05621,N
A05622,N
A05623,N
A05624,O
A05625,N
A05626,O
A05627,O
A05628,O
A05629,N
A05630,O
A05631,O
A05632,O
A05633,N
A05634,N
A05635,N
A05636,N
A05637,O
A05638,O
A05639,O
A05640,O
A05641,N
A05642,N
A05643,O
A05644,O
A05645,N
A05646,N
A05647,N
A05648,O
A05649,N
A05650,N
A05651,N
A05652,N
A05653,O
A05654,O
A05655,O
A05656,N
A05657,N
A05658,N
A05659,O
A05660,N
A05661,N
A05662,N
A05663,A
A05664,N
A05665,O
A05666,N
A05667,O
A05668,O
A05669,N
A05670,A
A05671,N
A05672,N
A05673,N
A05674,O
A05675,N
A05676,N
A05677,N
A05678,N
A05679,O
A05680,O
A05681,N
A05682,N
A05683,O
A05684,O
A05685,O
A05686,O
A05687,N
A05688,N
A05689,O
A05690,N
A05691,N
A05692,N
A05693,O
A05694,O
A05695,O
A05696,O
A05697,N
A05698,N
A05699,N
A05700,N
A05701,N
A05702,N
A05703,A
A05704,N
A05705,N
A05706,N
A05707,O
A05708,O
A05709,N
A05710,N
A05711,N
A05712,O
A05713,N
A05714,O
A05715,O
A05716,N
A05717,N
A05718,N
A05719,N
A05720,O
A05721,N
A05722,N
A05723,N
A05724,N
A05725,N
A05726,A
A05727,N
A05728,N
A05729,O
A05730,O
A05731,N
A05732,O
A05733,N
A05734,O
A05735,O
A05736,N
A05737,N
A05738,N
A05739,N
A05740,N
A05741,O
A05742,N
A05743,N
A05744,N
A05745,N
A05746,O
A05747,N
A05748,N
A05749,O
A05750,O
A05751,N
A05752,N
A05753,N
A05754,N
A05755,N
A05756,N
A05757,N
A05758,O
A05759,N
A05760,O
A05761,N
A05762,N
A05763,N
A05764,O
A05765,O
A05766,O
A05767,O
A05768,O
A05769,N
A05770,N
A05771,O
A05772,N
A05773,N
A05774,O
A05775,O
A05776,O
A05777,N
A05778,O
A05779,N
A05780,N
A05781,N
A05782,O
A05783,O
A05784,N
A05785,N
A05786,N
A05787,O
A05788,O
A05789,O
A05790,N
A05791,N
A05792,N
A05793,N
A05794,N
A05795,N
A05796,O
A05797,N
A05798,O
A05799,N
A05800,N
A05801,O
A05802,N
A05803,N
A05804,O
A05805,N
A05806,N
A05807,O
A05808,N
A05809,N
A05810,N
A05811,N
A05812,N
A05813,N
A05814,N
A05815,N
A05816,N
A05817,O
A05818,O
A05819,O
A05820,N
A05821,N
A05822,O
A05823,O
A05824,N
A05825,O
A05826,N
A05827,N
A05828,N
A05829,O
A05830,N
A05831,O
A05832,O
A05833,N
A05834,N
A05835,N
A05836,N
A05837,N
A05838,O
A05839,N
A05840,O
A05841,O
A05842,O
A05843,N
A05844,N
A05845,O
A05846,O
A05847,N
A05848,O
A05849,N
A05850,O
A05851,N
A05852,N
A05853,N
A05854,N
A05855,N
A05856,N
A05857,O
A05858,N
A05859,N
A05860,N
A05861,N
A05862,N
A05863,N
A05864,O
A05865,N
A05866,N
A05867,O
A05868,N
A05869,O
A05870,O
A05871,O
A05872,N
A05873,N
A05874,O
A05875,N
A05876,N
A05877,N
A05878,N
A05879,N
A05880,N
A05881,O
A05882,O
A05883,N
A05884,O
A05885,N
A05886,O
A05887,N
A05888,N
A05889,O
A05890,N
A05891,N
A05892,N
A05893,N
A05894,N
A05895,O
A05896,O
A05897,N
A05898,N
A05899,N
A05900,O
A05901,O
A05902,O
A05903,N
A05904,N
A05905,N
A05906,N
A05907,O
A05908,N
A05909,O
A05910,N
A05911,O
A05912,N
A05913,O
A05914,N
A05915,N
A05916,O
A05917,O
A05918,N
A05919,N
A05920,N
A05921,O
A05922,O
A05923,O
A05924,O
A05925,O
A05926,N
A05927,O
A05928,N
A05929,N
A05930,N
A05931,A
A05932,N
A05933,N
A05934,N
A05935,A
A05936,N
A05937,N
A05938,N
A05939,N
A05940,N
A05941,N
A05942,O
A05943,O
A05944,N
A05945,N
A05946,O
A05947,N
A05948,N
A05949,N
A05950,O
A05951,N
A05952,N
A05953,O
A05954,O
A05955,A
A05956,O
A05957,N
A05958,N
A05959,N
A05960,O
A05961,O
A05962,O
A05963,N
A05964,N
A05965,O
A05966,O
A05967,O
A05968,N
A05969,O
A05970,O
A05971,O
A05972,O
A05973,O
A05974,O
A05975,N
A05976,N
A05977,N
A05978,O
A05979,N
A05980,O
A05981,O
A05982,N
A05983,O
A05984,O
A05985,N
A05986,O
A05987,A
A05988,N
A05989,O
A05990,N
A05991,N
A05992,O
A05993,N
A05994,O
A05995,N
A05996,O
A05997,O
A05998,N
A05999,N
A06000,O
A06001,N
A06002,O
A06003,O
A06004,O
A06005,O
A06006,N
A06007,N
A06008,O
A06009,N
A06010,O
A06011,N
A06012,O
A06013,O
A06014,N
A06015,O
A06016,N
A06017,N
A06018,N
A06019,N
A06020,O
A06021,O
A06022,N
A06023,O
A06024,N
A06025,N
A06026,N
A06027,N
A06028,N
A06029,O
A06030,O
A06031,N
A06032,N
A06033,O
A06034,N
A06035,N
A06036,N
A06037,N
A06038,N
A06039,N
A06040,O
A06041,N
A06042,O
A06043,O
A06044,N
A06045,N
A06046,N
A06047,N
A06048,O
A06049,N
A06050,O
A06051,N
A06052,N
A06053,N
A06054,O
A06055,O
A06056,N
A06057,A
A06058,N
A06059,N
A06060,O
A06061,N
A06062,N
A06063,N
A06064,O
A06065,N
A06066,N
A06067,O
A06068,N
A06069,O
A06070,N
A06071,O
A06072,O
A06073,O
A06074,N
A06075,N
A06076,N
A06077,N
A06078,O
A06079,N
A06080,N
A06081,N
A06082,N
A06083,N
A06084,O
A06085,N
A06086,O
A06087,N
A06088,N
A06089,O
A06090,O
A06091,N
A06092,O
A06093,N
A06094,N
A06095,O
A06096,N
A06097,N
A06098,N
A06099,N
A06100,A
A06101,O
A06102,N
A06103,O
A06104,N
A06105,O
A06106,N
A06107,N
A06108,O
A06109,N
A06110,O
A06111,N
A06112,O
A06113,N
A06114,N
A06115,N
A06116,O
A06117,N
A06118,N
A06119,O
A06120,N
A06121,O
A06122,N
A06123,O
A06124,N
A06125,N
A06126,O
A06127,N
A06128,N
A06129,N
A06130,N
A06131,N
A06132,O
A06133,N
A06134,O
A06135,O
A06136,N
A06137,N
A06138,N
A06139,N
A06140,O
A06141,O
A06142,N
A06143,N
A06144,N
A06145,N
A06146,O
A06147,N
A06148,N
A06149,N
A06150,N
A06151,N
A06152,N
A06153,N
A06154,O
A06155,O
A06156,O
A06157,O
A06158,O
A06159,N
A06160,O
A06161,N
A06162,N
A06163,N
A06164,N
A06165,N
A06166,N
A06167,N
A06168,N
A06169,O
A06170,O
A06171,N
A06172,N
A06173,N
A06174,N
A06175,N
A06176,O
A06177,N
A06178,N
A06179,N
A06180,O
A06181,N
A06182,O
A06183,N
A06184,N
A06185,N
A06186,O
A06187,N
A06188,O
A06189,N
A06190,O
A06191,N
A06192,N
A06193,O
A06194,O
A06195,O
A06196,N
A06197,N
A06198,N
A06199,N
A06200,N
A06201,O
A06202,O
A06203,O
A06204,N
A06205,N
A06206,N
A06207,N
A06208,O
A06209,N
A06210,O
A06211,N
A06212,O
A06213,A
A06214,O
A06215,N
A06216,N
A06217,O
A06218,O
A06219,N
A06220,N
A06221,N
A06222,O
A06223,O
A06224,O
A06225,N
A06226,O
A06227,N
A06228,N
A06229,N
A06230,O
A06231,O
A06232,N
A06233,N
A06234,N
A06235,N
A06236,O
A06237,O
A06238,O
A06239,O
A06240,O
A06241,O
A06242,O
A06243,N
A06244,N
A06245,O
A06246,O
A06247,O
A06248,O
A06249,N
A06250,O
A06251,O
A06252,N
A06253,O
A06254,N
A06255,N
A06256,N
A06257,N
A06258,N
A06259,N
A06260,O
A06261,O
A06262,O
A06263,N
A06264,N
A06265,N
A06266,O
A06267,N
A06268,O
A06269,O
A06270,N
A06271,O
A06272,O
A06273,O
A06274,O
A06275,N
A06276,N
A06277,N
A06278,O
A06279,N
A06280,O
A06281,O
A06282,O
A06283,N
A06284,N
A06285,O
A06286,O
A06287,O
A06288,O
A06289,O
A06290,O
A06291,N
A06292,O
A06293,N
A06294,N
A06295,N
A06296,N
A06297,O
A06298,O
A06299,O
A06300,O
A06301,O
A06302,N
A06303,O
A06304,O
A06305,N
A06306,O
A06307,O
A06308,N
A06309,N
A06310,N
A06311,N
A06312,O
A06313,N
A06314,N
A06315,N
A06316,N
A06317,O
A06318,O
A06319,N
A06320,N
A06321,O
A06322,O
A06323,O
A06324,N
A06325,O
A06326,N
A06327,N
A06328,N
A06329,O
A06330,N
A06331,O
A06332,O
A06333,N
A06334,N
A06335,O
A06336,N
A06337,N
A06338,O
A06339,O
A06340,O
A06341,N
A06342,N
A06343,O
A06344,O
A06345,N
A06346,O
A06347,O
A06348,N
A06349,N
A06350,N
A06351,N
A06352,N
A06353,O
A06354,N
A06355,N
A06356,O
A06357,O
A06358,O
A06359,N
A06360,N
A06361,N
A06362,N
A06363,N
A06364,N
A06365,N
A06366,N
A06367,O
A06368,O
A06369,O
A06370,A
A06371,N
A06372,N
A06373,O
A06374,O
A06375,N
A06376,N
A06377,O
A06378,N
A06379,N
A06380,N
A06381,N
A06382,N
A06383,N
A06384,N
A06385,N
A06386,O
A06387,O
A06388,O
A06389,A
A06390,N
A06391,O
A06392,N
A06393,N
A06394,N
A06395,N
A06396,O
A06397,A
A06398,N
A06399,N
A06400,A
A06401,O
A06402,N
A06403,O
A06404,A
A06405,N
A06406,A
A06407,N
A06408,N
A06409,N
A06410,N
A06411,N
A06412,N
A06413,O
A06414,N
A06415,O
A06416,O
A06417,O
A06418,N
A06419,N
A06420,N
A06421,O
A06422,O
A06423,A
A06424,N
A06425,N
A06426,N
A06427,N
A06428,O
A06429,N
A06430,O
A06431,A
A06432,O
A06433,N
A06434,O
A06435,O
A06436,O
A06437,N
A06438,O
A06439,N
A06440,O
A06441,N
A06442,N
A06443,N
A06444,O
A06445,N
A06446,N
A06447,N
A06448,N
A06449,N
A06450,N
A06451,O
A06452,O
A06453,N
A06454,O
A06455,O
A06456,O
A06457,N
A06458,N
A06459,N
A06460,O
A06461,N
A06462,N
A06463,N
A06464,N
A06465,N
A06466,N
A06467,N
A06468,N
A06469,N
A06470,N
A06471,N
A06472,O
A06473,N
A06474,N
A06475,N
A06476,N
A06477,O
A06478,N
A06479,O
A06480,N
A06481,A
A06482,N
A06483,O
A06484,N
A06485,O
A06486,N
A06487,N
A06488,N
A06489,O
A06490,N
A06491,N
A06492,N
A06493,A
A06494,N
A06495,N
A06496,O
A06497,N
A06498,N
A06499,N
A06500,N
A06501,O
A06502,O
A06503,N
A06504,O
A06505,N
A06506,N
A06507,N
A06508,N
A06509,N
A06510,O
A06511,O
A06512,O
A06513,O
A06514,O
A06515,O
A06516,O
A06517,O
A06518,N
A06519,O
A06520,O
A06521,N
A06522,N
A06523,N
A06524,O
A06525,N
A06526,A
A06527,O
A06528,N
A06529,N
A06530,N
A06531,A
A06532,O
A06533,O
A06534,O
A06535,N
A06536,A
A06537,O
A06538,N
A06539,N
A06540,N
A06541,O
A06542,N
A06543,N
A06544,N
A06545,A
A06546,O
A06547,N
A06548,O
A06549,O
A06550,N
A06551,A
A06552,N
A06553,N
A06554,O
A06555,N
A06556,O
A06557,N
A06558,O
A06559,O
A06560,N
A06561,N
A06562,O
A06563,N
A06564,N
A06565,N
A06566,N
A06567,N
A06568,N
A06569,N
A06570,N
A06571,O
A06572,N
A06573,O
A06574,N
A06575,N
A06576,A
A06577,N
A06578,O
A06579,N
A06580,N
A06581,N
A06582,N
A06583,N
A06584,O
A06585,N
A06586,N
A06587,O
A06588,O
A06589,N
A06590,A
A06591,N
A06592,N
A06593,N
A06594,N
A06595,O
A06596,O
A06597,N
A06598,N
A06599,N
A06600,N
A06601,N
A06602,N
A06603,N
A06604,N
A06605,A
A06606,N
A06607,N
A06608,O
A06609,O
A06610,A
A06611,O
A06612,N
A06613,O
A06614,O
A06615,N
A06616,N
A06617,N
A06618,N
A06619,N
A06620,O
A06621,N
A06622,O
A06623,A
A06624,N
A06625,O
A06626,O
A06627,A
A06628,N
A06629,O
A06630,O
A06631,A
A06632,N
A06633,O
A06634,N
A06635,N
A06636,N
A06637,A
A06638,O
A06639,O
A06640,N
A06641,N
A06642,O
A06643,N
A06644,N
A06645,N
A06646,N
A06647,O
A06648,O
A06649,A
A06650,A
A06651,N
A06652,N
A06653,N
A06654,N
A06655,O
A06656,N
A06657,N
A06658,O
A06659,N
A06660,O
A06661,O
A06662,N
A06663,A
A06664,O
A06665,N
A06666,A
A06667,N
A06668,N
A06669,N
A06670,N
A06671,A
A06672,N
A06673,N
A06674,N
A06675,N
A06676,A
A06677,A
A06678,N
A06679,N
A06680,O
A06681,N
A06682,N
A06683,O
A06684,N
A06685,O
A06686,N
A06687,A
A06688,O
A06689,N
A06690,A
A06691,N
A06692,O
A06693,O
A06694,O
A06695,A
A06696,N
A06697,N
A06698,N
A06699,A
A06700,A
A06701,N
A06702,N
A06703,N
A06704,O
A06705,O
A06706,N
A06707,N
A06708,N
A06709,N
A06710,N
A06711,N
A06712,N
A06713,A
A06714,N
A06715,O
A06716,N
A06717,O
A06718,N
A06719,N
A06720,N
A06721,A
A06722,N
A06723,N
A06724,O
A06725,A
A06726,A
A06727,O
A06728,O
A06729,N
A06730,N
A06731,N
A06732,N
A06733,N
A06734,A
A06735,O
A06736,A
A06737,O
A06738,O
A06739,N
A06740,N
A06741,O
A06742,O
A06743,A
A06744,N
A06745,N
A06746,N
A06747,O
A06748,O
A06749,N
A06750,N
A06751,N
A06752,N
A06753,N
A06754,O
A06755,A
A06756,O
A06757,O
A06758,N
A06759,O
A06760,O
A06761,A
A06762,O
A06763,N
A06764,O
A06765,N
A06766,A
A06767,O
A06768,N
A06769,O
A06770,N
A06771,N
A06772,O
A06773,O
A06774,A
A06775,N
A06776,O
A06777,N
A06778,N
A06779,A
A06780,N
A06781,O
A06782,A
A06783,N
A06784,N
A06785,N
A06786,A
A06787,N
A06788,N
A06789,O
A06790,N
A06791,N
A06792,N
A06793,O
A06794,O
A06795,O
A06796,N
A06797,N
A06798,N
A06799,O
A06800,N
A06801,O
A06802,N
A06803,N
A06804,A
A06805,N
A06806,N
A06807,O
A06808,O
A06809,N
A06810,N
A06811,O
A06812,N
A06813,N
A06814,N
A06815,N
A06816,O
A06817,N
A06818,A
A06819,O
A06820,A
A06821,N
A06822,N
A06823,O
A06824,O
A06825,N
A06826,O
A06827,N
A06828,N
A06829,N
A06830,O
A06831,O
A06832,N
A06833,N
A06834,O
A06835,N
A06836,A
A06837,O
A06838,N
A06839,N
A06840,N
A06841,O
A06842,N
A06843,N
A06844,N
A06845,O
A06846,N
A06847,O
A06848,N
A06849,N
A06850,O
A06851,O
A06852,N
A06853,N
A06854,N
A06855,O
A06856,N
A06857,N
A06858,N
A06859,N
A06860,A
A06861,A
A06862,O
A06863,N
A06864,N
A06865,N
A06866,O
A06867,N
A06868,A
A06869,A
A06870,N
A06871,N
A06872,N
A06873,N
A06874,O
A06875,N
A06876,N
A06877,O
A06878,N
A06879,N
A06880,N
A06881,O
A06882,O
A06883,N
A06884,N
A06885,A
A06886,N
A06887,O
A06888,O
A06889,N
A06890,O
A06891,N
A06892,O
A06893,N
A06894,A
A06895,N
A06896,N
A06897,O
A06898,A
A06899,O
A06900,A
A06901,O
A06902,N
A06903,N
A06904,O
A06905,A
A06906,N
A06907,O
A06908,N
A06909,N
A06910,N
A06911,A
A06912,A
A06913,N
A06914,O
A06915,N
A06916,O
A06917,A
A06918,O
A06919,O
A06920,O
A06921,O
A06922,N
A06923,A
A06924,N
A06925,A
A06926,N
A06927,N
A06928,N
A06929,N
A06930,N
A06931,N
A06932,A
A06933,N
A06934,N
A06935,O
A06936,N
A06937,N
A06938,A
A06939,N
A06940,N
A06941,N
A06942,N
A06943,N
A06944,N
A06945,N
A06946,N
A06947,N
A06948,O
A06949,N
A06950,N
A06951,N
A06952,N
A06953,O
A06954,N
A06955,A
A06956,N
A06957,N
A06958,N
A06959,N
A06960,N
A06961,N
A06962,A
A06963,O
A06964,O
A06965,N
A06966,O
A06967,O
A06968,O
A06969,O
A06970,A
A06971,O
A06972,N
A06973,N
A06974,N
A06975,A
A06976,N
A06977,O
A06978,N
A06979,N
A06980,N
A06981,A
A06982,O
A06983,N
A06984,A
A06985,N
A06986,O
A06987,O
A06988,N
A06989,O
A06990,N
A06991,A
A06992,O
A06993,N
A06994,N
A06995,O
A06996,O
A06997,O
A06998,A
A06999,N
A07000,N
A07001,O
A07002,N
A07003,O
A07004,A
A07005,O
A07006,O
A07007,N
A07008,N
A07009,N
A07010,N
A07011,N
A07012,N
A07013,O
A07014,O
A07015,N
A07016,N
A07017,O
A07018,O
A07019,N
A07020,N
A07021,N
A07022,N
A07023,N
A07024,N
A07025,N
A07026,N
A07027,O
A07028,A
A07029,O
A07030,O
A07031,N
A07032,N
A07033,N
A07034,N
A07035,N
A07036,A
A07037,N
A07038,O
A07039,N
A07040,N
A07041,N
A07042,A
A07043,N
A07044,N
A07045,A
A07046,O
A07047,N
A07048,N
A07049,O
A07050,N
A07051,N
A07052,N
A07053,N
A07054,N
A07055,N
A07056,N
A07057,N
A07058,N
A07059,N
A07060,N
A07061,O
A07062,O
A07063,A
A07064,O
A07065,N
A07066,O
A07067,O
A07068,O
A07069,O
A07070,A
A07071,O
A07072,O
A07073,N
A07074,N
A07075,N
A07076,O
A07077,N
A07078,N
A07079,N
A07080,N
A07081,N
A07082,N
A07083,O
A07084,O
A07085,N
A07086,N
A07087,O
A07088,N
A07089,N
A07090,N
A07091,O
A07092,A
A07093,A
A07094,N
A07095,N
A07096,A
A07097,N
A07098,N
A07099,O
A07100,A
A07101,A
A07102,N
A07103,N
A07104,N
A07105,N
A07106,N
A07107,N
A07108,N
A07109,O
A07110,N
A07111,N
A07112,N
A07113,N
A07114,N
A07115,N
A07116,N
A07117,N
A07118,A
A07119,O
A07120,N
A07121,N
A07122,A
A07123,N
A07124,N
A07125,N
A07126,N
A07127,N
A07128,N
A07129,N
A07130,N
A07131,N
A07132,O
A07133,O
A07134,N
A07135,O
A07136,O
A07137,O
A07138,O
A07139,O
A07140,N
A07141,N
A07142,N
A07143,A
A07144,O
A07145,O
A07146,N
A07147,N
A07148,O
A07149,N
A07150,O
A07151,N
A07152,N
A07153,N
A07154,O
A07155,O
A07156,O
A07157,O
A07158,N
A07159,O
A07160,N
A07161,A
A07162,O
A07163,A
A07164,N
A07165,N
A07166,O
A07167,N
A07168,A
A07169,N
A07170,N
A07171,O
A07172,O
A07173,N
A07174,N
A07175,N
A07176,N
A07177,O
A07178,N
A07179,O
A07180,O
A07181,N
A07182,N
A07183,O
A07184,N
A07185,O
A07186,N
A07187,O
A07188,N
A07189,N
A07190,N
A07191,N
A07192,N
A07193,N
A07194,O
A07195,O
A07196,A
A07197,N
A07198,O
A07199,N
A07200,N
A07201,N
A07202,O
A07203,O
A07204,N
A07205,A
A07206,A
A07207,N
A07208,O
A07209,N
A07210,N
A07211,N
A07212,A
A07213,O
A07214,O
A07215,O
A07216,N
A07217,O
A07218,A
A07219,O
A07220,N
A07221,N
A07222,N
A07223,N
A07224,A
A07225,N
A07226,O
A07227,N
A07228,N
A07229,O
A07230,N
A07231,N
A07232,N
A07233,O
A07234,N
A07235,N
A07236,A
A07237,O
A07238,N
A07239,N
A07240,O
A07241,N
A07242,N
A07243,A
A07244,N
A07245,O
A07246,N
A07247,O
A07248,N
A07249,O
A07250,N
A07251,O
A07252,O
A07253,A
A07254,O
A07255,A
A07256,A
A07257,N
A07258,A
A07259,N
A07260,N
A07261,O
A07262,N
A07263,O
A07264,N
A07265,O
A07266,N
A07267,N
A07268,N
A07269,N
A07270,A
A07271,O
A07272,N
A07273,N
A07274,O
A07275,A
A07276,N
A07277,O
A07278,N
A07279,N
A07280,O
A07281,A
A07282,N
A07283,O
A07284,A
A07285,A
A07286,O
A07287,N
A07288,N
A07289,O
A07290,O
A07291,A
A07292,O
A07293,A
A07294,A
A07295,N
A07296,N
A07297,O
A07298,N
A07299,N
A07300,N
A07301,A
A07302,O
A07303,N
A07304,A
A07305,N
A07306,O
A07307,A
A07308,O
A07309,N
A07310,N
A07311,N
A07312,N
A07313,N
A07314,O
A07315,N
A07316,O
A07317,N
A07318,N
A07319,N
A07320,O
A07321,O
A07322,O
A07323,N
A07324,A
A07325,N
A07326,N
A07327,N
A07328,O
A07329,O
A07330,N
A07331,O
A07332,N
A07333,N
A07334,N
A07335,N
A07336,N
A07337,N
A07338,O
A07339,N
A07340,N
A07341,N
A07342,N
A07343,A
A07344,N
A07345,N
A07346,N
A07347,N
A07348,O
A07349,N
A07350,O
A07351,N
A07352,N
A07353,N
A07354,N
A07355,O
A07356,O
A07357,N
A07358,O
A07359,N
A07360,N
A07361,N
A07362,N
A07363,O
A07364,N
A07365,N
A07366,A
A07367,O
A07368,N
A07369,N
A07370,N
A07371,A
A07372,N
A07373,N
A07374,O
A07375,N
A07376,N
A07377,N
A07378,N
A07379,N
A07380,N
A07381,A
A07382,O
A07383,N
A07384,N
A07385,N
A07386,N
A07387,O
A07388,O
A07389,N
A07390,N
A07391,N
A07392,N
A07393,N
A07394,N
A07395,O
A07396,N
A07397,N
A07398,N
A07399,N
A07400,N
A07401,N
A07402,N
A07403,N
A07404,N
A07405,O
A07406,N
A07407,N
A07408,O
A07409,O
A07410,N
A07411,N
A07412,N
A07413,N
A07414,N
A07415,N
A07416,N
A07417,O
A07418,N
A07419,O
A07420,N
A07421,O
A07422,N
A07423,A
A07424,N
A07425,N
A07426,N
A07427,N
A07428,A
A07429,A
A07430,O
A07431,N
A07432,A
A07433,N
A07434,N
A07435,A
A07436,N
A07437,N
A07438,O
A07439,N
A07440,O
A07441,O
A07442,N
A07443,N
A07444,N
A07445,O
A07446,O
A07447,N
A07448,N
A07449,N
A07450,O
A07451,N
A07452,N
A07453,N
A07454,N
A07455,N
A07456,O
A07457,N
A07458,N
A07459,N
A07460,O
A07461,N
A07462,O
A07463,N
A07464,O
A07465,O
A07466,N
A07467,A
A07468,N
A07469,N
A07470,N
A07471,O
A07472,N
A07473,A
A07474,N
A07475,N
A07476,N
A07477,N
A07478,N
A07479,N
A07480,N
A07481,O
A07482,N
A07483,N
A07484,O
A07485,O
A07486,O
A07487,N
A07488,N
A07489,O
A07490,N
A07491,N
A07492,O
A07493,O
A07494,N
A07495,N
A07496,A
A07497,O
A07498,A
A07499,N
A07500,O
A07501,A
A07502,N
A07503,N
A07504,N
A07505,N
A07506,O
A07507,N
A07508,N
A07509,N
A07510,O
A07511,N
A07512,N
A07513,N
A07514,N
A07515,N
A07516,N
A07517,O
A07518,A
A07519,N
A07520,N
A07521,N
A07522,O
A07523,N
A07524,O
A07525,N
A07526,O
A07527,O
A07528,N
A07529,N
A07530,N
A07531,O
A07532,N
A07533,O
A07534,N
A07535,N
A07536,N
A07537,O
A07538,N
A07539,O
A07540,O
A07541,N
A07542,O
A07543,N
A07544,N
A07545,N
A07546,N
A07547,O
A07548,N
A07549,O
A07550,O
A07551,N
A07552,N
A07553,N
A07554,A
A07555,N
A07556,O
A07557,N
A07558,N
A07559,N
A07560,O
A07561,N
A07562,A
A07563,A
A07564,O
A07565,O
A07566,N
A07567,O
A07568,O
A07569,N
A07570,O
A07571,N
A07572,O
A07573,N
A07574,O
A07575,N
A07576,N
A07577,O
A07578,N
A07579,N
A07580,O
A07581,O
A07582,N
A07583,O
A07584,N
A07585,N
A07586,N
A07587,O
A07588,N
A07589,N
A07590,N
A07591,N
A07592,O
A07593,N
A07594,N
A07595,N
A07596,N
A07597,O
A07598,N
A07599,N
A07600,A
A07601,N
A07602,O
A07603,O
A07604,N
A07605,O
A07606,O
A07607,A
A07608,N
A07609,A
A07610,O
A07611,N
A07612,N
A07613,N
A07614,N
A07615,N
A07616,O
A07617,O
A07618,O
A07619,N
A07620,O
A07621,N
A07622,N
A07623,N
A07624,N
A07625,O
A07626,A
A07627,O
A07628,O
A07629,N
A07630,N
A07631,O
A07632,O
A07633,O
A07634,N
A07635,N
A07636,O
A07637,O
A07638,O
A07639,N
A07640,N
A07641,O
A07642,N
A07643,O
A07644,N
A07645,N
A07646,N
A07647,N
A07648,A
A07649,O
A07650,N
A07651,N
A07652,N
A07653,N
A07654,N
A07655,N
A07656,A
A07657,A
A07658,O
A07659,O
A07660,N
A07661,A
A07662,N
A07663,N
A07664,A
A07665,N
A07666,A
A07667,N
A07668,N
A07669,N
A07670,O
A07671,N
A07672,O
A07673,N
A07674,O
A07675,N
A07676,N
A07677,N
A07678,O
A07679,O
A07680,N
A07681,N
A07682,N
A07683,N
A07684,N
A07685,N
A07686,O
A07687,N
A07688,A
A07689,O
A07690,N
A07691,O
A07692,N
A07693,N
A07694,N
A07695,N
A07696,O
A07697,N
A07698,N
A07699,N
A07700,N
A07701,O
A07702,A
A07703,O
A07704,N
A07705,N
A07706,N
A07707,N
A07708,O
A07709,N
A07710,A
A07711,O
A07712,N
A07713,O
A07714,A
A07715,N
A07716,N
A07717,N
A07718,A
A07719,N
A07720,O
A07721,N
A07722,A
A07723,O
A07724,O
A07725,N
A07726,O
A07727,O
A07728,O
A07729,N
A07730,N
A07731,O
A07732,A
A07733,O
A07734,O
A07735,N
A07736,O
A07737,O
A07738,N
A07739,N
A07740,O
A07741,O
A07742,O
A07743,N
A07744,A
A07745,N
A07746,N
A07747,A
A07748,N
A07749,N
A07750,N
A07751,N
A07752,O
A07753,N
A07754,O
A07755,N
A07756,O
A07757,N
A07758,N
A07759,N
A07760,O
A07761,N
A07762,N
A07763,N
A07764,N
A07765,A
A07766,A
A07767,N
A07768,O
A07769,N
A07770,N
A07771,A
A07772,O
A07773,O
A07774,N
A07775,N
A07776,O
A07777,O
A07778,N
A07779,O
A07780,N
A07781,O
A07782,N
A07783,N
A07784,A
A07785,O
A07786,O
A07787,O
A07788,N
A07789,O
A07790,O
A07791,N
A07792,N
A07793,N
A07794,O
A07795,N
A07796,O
A07797,O
A07798,N
A07799,O
A07800,N
A07801,O
A07802,O
A07803,N
A07804,N
A07805,N
A07806,O
A07807,N
A07808,O
A07809,O
A07810,A
A07811,N
A07812,N
A07813,N
A07814,A
A07815,O
A07816,O
A07817,N
A07818,O
A07819,N
A07820,N
A07821,O
A07822,A
A07823,N
A07824,N
A07825,O
A07826,N
A07827,O
A07828,N
A07829,N
A07830,O
A07831,O
A07832,N
A07833,O
A07834,N
A07835,N
A07836,A
A07837,N
A07838,A
A07839,N
A07840,O
A07841,A
A07842,N
A07843,N
A07844,N
A07845,A
A07846,N
A07847,N
A07848,N
A07849,N
A07850,O
A07851,N
A07852,N
A07853,O
A07854,N
A07855,N
A07856,N
A07857,O
A07858,N
A07859,O
A07860,A
A07861,N
A07862,N
A07863,N
A07864,N
A07865,O
A07866,N
A07867,O
A07868,N
A07869,O
A07870,A
A07871,A
A07872,N
A07873,A
A07874,O
A07875,N
A07876,N
A07877,N
A07878,O
A07879,O
A07880,O
A07881,O
A07882,N
A07883,O
A07884,N
A07885,N
A07886,N
A07887,O
A07888,A
A07889,N
A07890,O
A07891,O
A07892,O
A07893,O
A07894,O
A07895,O
A07896,A
A07897,N
A07898,A
A07899,O
A07900,O
A07901,A
A07902,O
A07903,A
A07904,A
A07905,N
A07906,N
A07907,N
A07908,O
A07909,N
A07910,N
A07911,N
A07912,N
A07913,O
A07914,O
A07915,O
A07916,N
A07917,N
A07918,N
A07919,N
A07920,O
A07921,O
A07922,N
A07923,O
A07924,A
A07925,N
A07926,N
A07927,A
A07928,O
A07929,N
A07930,A
A07931,N
A07932,N
A07933,N
A07934,O
A07935,N
A07936,O
A07937,N
A07938,O
A07939,O
A07940,O
A07941,N
A07942,O
A07943,N
A07944,N
A07945,N
A07946,N
A07947,A
A07948,N
A07949,N
A07950,A
A07951,N
A07952,O
A07953,N
A07954,O
A07955,N
A07956,N
A07957,A
A07958,N
A07959,O
A07960,N
A07961,O
A07962,N
A07963,O
A07964,N
A07965,N
A07966,O
A07967,N
A07968,O
A07969,A
A07970,N
A07971,O
A07972,N
A07973,O
A07974,N
A07975,N
A07976,O
A07977,O
A07978,O
A07979,N
A07980,O
A07981,N
A07982,A
A07983,O
A07984,A
A07985,O
A07986,O
A07987,N
A07988,O
A07989,N
A07990,O
A07991,N
A07992,O
A07993,N
A07994,N
A07995,N
A07996,O
A07997,N
A07998,O
A07999,N
A08000,N
A08001,N
A08002,N
A08003,A
A08004,N
A08005,O
A08006,N
A08007,O
A08008,O
A08009,N
A08010,O
A08011,N
A08012,A
A08013,A
A08014,N
A08015,N
A08016,N
A08017,O
A08018,A
A08019,O
A08020,N
A08021,O
A08022,N
A08023,A
A08024,O
A08025,A
A08026,N
A08027,O
A08028,N
A08029,N
A08030,O
A08031,N
A08032,N
A08033,N
A08034,N
A08035,O
A08036,O
A08037,O
A08038,A
A08039,O
A08040,O
A08041,O
A08042,O
A08043,O
A08044,N
A08045,O
A08046,O
A08047,A
A08048,O
A08049,N
A08050,O
A08051,N
A08052,N
A08053,A
A08054,O
A08055,N
A08056,O
A08057,N
A08058,O
A08059,O
A08060,O
A08061,O
A08062,N
A08063,A
A08064,A
A08065,A
A08066,N
A08067,A
A08068,N
A08069,N
A08070,O
A08071,O
A08072,N
A08073,N
A08074,N
A08075,N
A08076,O
A08077,N
A08078,N
A08079,N
A08080,N
A08081,O
A08082,N
A08083,A
A08084,N
A08085,A
A08086,O
A08087,O
A08088,N
A08089,N
A08090,O
A08091,N
A08092,N
A08093,O
A08094,N
A08095,N
A08096,O
A08097,N
A08098,N
A08099,N
A08100,N
A08101,O
A08102,N
A08103,N
A08104,O
A08105,N
A08106,N
A08107,N
A08108,N
A08109,N
A08110,N
A08111,N
A08112,O
A08113,A
A08114,O
A08115,N
A08116,N
A08117,N
A08118,O
A08119,N
A08120,N
A08121,N
A08122,N
A08123,N
A08124,O
A08125,N
A08126,O
A08127,N
A08128,N
A08129,A
A08130,N
A08131,N
A08132,A
A08133,O
A08134,O
A08135,N
A08136,N
A08137,N
A08138,N
A08139,O
A08140,N
A08141,N
A08142,O
A08143,N
A08144,N
A08145,N
A08146,O
A08147,O
A08148,O
A08149,O
A08150,N
A08151,N
A08152,N
A08153,O
A08154,A
A08155,N
A08156,A
A08157,N
A08158,N
A08159,O
A08160,O
A08161,N
A08162,N
A08163,O
A08164,O
A08165,N
A08166,O
A08167,O
A08168,N
A08169,N
A08170,N
A08171,O
A08172,N
A08173,N
A08174,N
A08175,O
A08176,O
A08177,N
A08178,N
A08179,O
A08180,N
A08181,O
A08182,N
A08183,N
A08184,N
A08185,O
A08186,N
A08187,N
A08188,N
A08189,N
A08190,O
A08191,N
A08192,N
A08193,A
A08194,O
A08195,A
A08196,N
A08197,N
A08198,N
A08199,N
A08200,O
A08201,N
A08202,N
A08203,O
A08204,O
A08205,N
A08206,N
A08207,O
A08208,O
A08209,O
A08210,O
A08211,N
A08212,N
A08213,O
A08214,N
A08215,N
A08216,O
A08217,O
A08218,N
A08219,O
A08220,N
A08221,O
A08222,N
A08223,N
A08224,N
A08225,N
A08226,N
A08227,A
A08228,N
A08229,O
A08230,O
A08231,N
A08232,N
A08233,N
A08234,N
A08235,N
A08236,A
A08237,N
A08238,N
A08239,N
A08240,N
A08241,O
A08242,A
A08243,N
A08244,N
A08245,N
A08246,O
A08247,O
A08248,A
A08249,O
A08250,O
A08251,O
A08252,N
A08253,O
A08254,N
A08255,N
A08256,O
A08257,N
A08258,O
A08259,N
A08260,N
A08261,N
A08262,O
A08263,N
A08264,N
A08265,N
A08266,O
A08267,O
A08268,O
A08269,O
A08270,N
A08271,N
A08272,N
A08273,O
A08274,N
A08275,N
A08276,O
A08277,N
A08278,O
A08279,A
A08280,N
A08281,O
A08282,N
A08283,A
A08284,N
A08285,O
A08286,N
A08287,N
A08288,N
A08289,N
A08290,A
A08291,O
A08292,O
A08293,O
A08294,O
A08295,N
A08296,A
A08297,N
A08298,N
A08299,O
A08300,N
A08301,O
A08302,N
A08303,O
A08304,A
A08305,A
A08306,N
A08307,A
A08308,N
A08309,O
A08310,O
A08311,O
A08312,O
A08313,O
A08314,O
A08315,N
A08316,N
A08317,O
A08318,N
A08319,N
A08320,O
A08321,N
A08322,N
A08323,N
A08324,N
A08325,N
A08326,N
A08327,N
A08328,A
A08329,O
A08330,N
A08331,O
A08332,O
A08333,N
A08334,N
A08335,N
A08336,O
A08337,N
A08338,N
A08339,O
A08340,N
A08341,N
A08342,N
A08343,O
A08344,N
A08345,N
A08346,N
A08347,N
A08348,N
A08349,N
A08350,N
A08351,N
A08352,N
A08353,A
A08354,N
A08355,N
A08356,N
A08357,N
A08358,N
A08359,O
A08360,N
A08361,O
A08362,N
A08363,N
A08364,N
A08365,O
A08366,N
A08367,N
A08368,N
A08369,N
A08370,N
A08371,A
A08372,O
A08373,N
A08374,N
A08375,O
A08376,N
A08377,O
A08378,O
A08379,N
A08380,N
A08381,N
A08382,N
A08383,O
A08384,N
A08385,N
A08386,O
A08387,N
A08388,O
A08389,O
A08390,N
A08391,O
A08392,A
A08393,N
A08394,N
A08395,N
A08396,O
A08397,N
A08398,O
A08399,O
A08400,O
A08401,O
A08402,O
A08403,N
A08404,O
A08405,A
A08406,N
A08407,O
A08408,O
A08409,O
A08410,O
A08411,N
A08412,O
A08413,N
A08414,A
A08415,O
A08416,N
A08417,N
A08418,N
A08419,N
A08420,N
A08421,N
A08422,A
A08423,N
A08424,N
A08425,O
A08426,N
A08427,O
A08428,O
A08429,N
A08430,N
A08431,O
A08432,O
A08433,O
A08434,O
A08435,N
A08436,A
A08437,O
A08438,N
A08439,O
A08440,N
A08441,N
A08442,N
A08443,N
A08444,N
A08445,N
A08446,N
A08447,N
A08448,N
A08449,N
A08450,O
A08451,A
A08452,O
A08453,O
A08454,N
A08455,N
A08456,O
A08457,N
A08458,O
A08459,N
A08460,N
A08461,N
A08462,N
A08463,O
A08464,O
A08465,N
A08466,A
A08467,N
A08468,O
A08469,N
A08470,O
A08471,O
A08472,N
A08473,O
A08474,N
A08475,N
A08476,N
A08477,N
A08478,O
A08479,O
A08480,N
A08481,O
A08482,N
A08483,N
A08484,O
A08485,N
A08486,A
A08487,O
A08488,N
A08489,O
A08490,O
A08491,N
A08492,O
A08493,O
A08494,N
A08495,A
A08496,N
A08497,N
A08498,O
A08499,O
A08500,A
A08501,O
A08502,N
A08503,N
A08504,O
A08505,N
A08506,N
A08507,N
A08508,N
A08509,N
A08510,O
A08511,O
A08512,N
A08513,N
A08514,A
A08515,N
A08516,O
A08517,N
A08518,N
A08519,O
A08520,O
A08521,O
A08522,N
A08523,A
A08524,N
A08525,O
A08526,N
A08527,N
A08528,N
Az8529,A
Az8530,A
Az8531,A
Az8532,A
Az8533,A
Az8534,A
Az8535,A
Az8536,A
Az8537,A
Az8538,A
Az8539,A
Az8540,A
Az8541,A
Az8542,A
Az8543,A
Az8544,A
Az8545,A
Az8546,A
Az8547,A
Az8548,A
Az8549,A
Az8550,A
Az8551,A
Az8552,A
Az8553,A
Az8554,A
Az8555,A
Az8556,A
Az8557,A
Az8558,A
Az8559,A
Az8560,A
Az8561,A
Az8562,A
Az8563,A
Az8564,A
Az8565,A
Az8566,A
Az8567,A
Az8568,A
Az8569,A
Az8570,A
Az8571,A
Az8572,A
Az8573,A
Az8574,A
Az8575,A
Az8576,A
Az8577,A
Az8578,A
Az8579,A
Az8580,A
Az8581,A
Az8582,A
Az8583,A
Az8584,A
Az8585,A
Az8586,A
Az8587,A
Az8588,A
Az8589,A
Az8590,A
Az8591,A
Az8592,A
Az8593,A
Az8594,A
Az8595,A
Az8596,A
Az8597,A
Az8598,A
Az8599,A
Az8600,A
Az8601,A
Az8602,A
Az8603,A
Az8604,A
Az8605,A
Az8606,A
Az8607,A
Az8608,A
Az8609,A
Az8610,A
Az8611,A
Az8612,A
Az8613,A
Az8614,A
Az8615,A
Az8616,A
Az8617,A
Az8618,A
Az8619,A
Az8620,A
Az8621,A
Az8622,A
Az8623,A
Az8624,A
Az8625,A
Az8626,A
Az8627,A
Az8628,A
Az8629,A
Az8630,A
Az8631,A
Az8632,A
Az8633,A
Az8634,A
Az8635,A
Az8636,A
Az8637,A
Az8639,A
Az8640,A
Az8641,A
Az8642,A
Az8643,A
Az8644,A
Az8645,A
Az8646,A
Az8647,A
Az8648,A
Az8649,A
Az8650,A
Az8651,A
Az8652,A
Az8653,A
Az8654,A
Az8655,A
Az8656,A
Az8657,A
Az8658,A
Az8659,A
Az8660,A
Az8661,A
Az8662,A
Az8663,A
Az8665,A
Az8666,A
Az8667,A
Az8668,A
Az8669,A
Az8672,A
Az8673,A
Az8674,A
Az8675,A
Az8676,A
Az8677,A
Az8678,A
Az8679,A
Az8680,A
Az8681,A
Az8682,A
Az8683,A
Az8684,A
Az8685,A
Az8686,A
Az8687,A
Az8688,A
Az8689,A
Az8690,A
Az8691,A
Az8692,A
Az8693,A
Az8694,A
Az8695,A
Az8696,A
Az8697,A
Az8698,A
Az8699,A
Az8700,A
Az8701,A
Az8702,A
Az8703,A
Az8704,A
Az8705,A
Az8706,A
Az8707,A
Az8708,A
Az8709,A
Az8710,A
Az8711,A
Az8712,A
Az8713,A
Az8714,A
Az8715,A
Az8716,A
Az8717,A
Az8718,A
Az8719,A
Az8720,A
Az8721,A
Az8722,A
Az8723,A
Az8724,A
Az8725,A
Az8726,A
Az8727,A
Az8728,A
Az8729,A
Az8730,A
Az8731,A
Az8733,N
Az8734,N
Az8735,N
Az8736,N
Az8737,N
Az8738,N
Az8739,N
Az8741,N
Az8742,N
Az8743,N
Az8744,N
Az8745,N
Az8746,N
Az8747,N
Az8749,N
Az8750,N
Az8751,N
Az8752,N
Az8753,N
Az8754,N
Az8755,N
Az8757,N
Az8758,N
Az8759,N
Az8760,N
Az8761,N
Az8763,N
Az8764,N
Az8765,N
Az8766,N
Az8768,N
Az8769,N
Az8770,N
Az8771,N
Az8772,N
Az8773,N
Az8774,N
Az8775,N
Az8776,N
Az8777,N
Az8778,N
Az8779,N
Az8780,N
Az8781,N
Az8782,N
Az8783,N
Az8784,N
Az8785,N
Az8786,N
Az8787,N
Az8788,N
Az8789,N
Az8790,N
Az8791,N
Az8792,N
Az8793,N
Az8794,N
Az8795,N
Az8796,N
Az8797,N
Az8798,N
Az8799,N
Az8800,N
Az8801,N
Az8802,N
Az8804,N
Az8805,N
Az8806,N
Az8807,N
Az8808,N
Az8809,N
Az8810,N
Az8811,N
Az8813,N
Az8814,N
Az8815,N
Az8816,N
Az8817,N
Az8818,N
Az8819,N
Az8820,N
Az8821,N
Az8822,N
Az8823,N
Az8824,N
Az8825,N
Az8826,N
Az8827,N
Az8829,N
Az8830,N
Az8831,N
Az8832,N
Az8833,N
Az8834,N
Az8835,N
Az8836,N
Az8837,N
Az8838,N
Az8839,N
Az8840,N
Az8841,N
Az8842,N
Az8843,N
Az8844,N
Az8845,N
Az8846,N
Az8847,N
Az8848,N
Az8849,N
Az8850,N
Az8851,N
Az8852,N
Az8853,N
Az8854,N
Az8855,N
Az8856,N
Az8857,N
Az8858,N
Az8859,N
Az8860,N
Az8861,N
Az8862,N
Az8863,N
Az8864,N
Az8865,N
Az8867,N
Az8869,N
Az8870,N
Az8871,N
Az8874,N
Az8875,N
Az8876,N
Az8877,N
Az8878,N
Az8879,N
Az8880,N
Az8881,N
Az8882,N
Az8883,N
Az8884,N
Az8885,N
Az8886,N
Az8887,N
Az8888,N
Az8889,N
Az8890,N
Az8891,N
Az8892,N
Az8893,N
Az8894,N
Az8895,N
Az8896,N
Az8897,N
Az8898,N
Az8899,N
Az8900,N
Az8901,N
Az8902,N
Az8903,N
Az8904,N
Az8905,N
Az8906,N
Az8907,N
Az8908,N
Az8909,N
Az8910,N
Az8911,N
Az8912,N
Az8914,N
Az8915,N
Az8916,N
Az8917,N
Az8918,N
Az8919,N
Az8920,N
Az8921,N
Az8923,N
Az8925,N
Az8926,N
Az8927,N
Az8929,N

