,val_loss,val_accuracy,loss,accuracy
0,1.0149658211955317,0.5982042551040649,1.1677333229837445,0.5472121834754944
1,1.0488815395920366,0.5982042551040649,1.070077701185623,0.5812647938728333
2,1.0144853032665488,0.5982042551040649,1.040598204676552,0.5860047340393066
3,0.9932401813106773,0.5982042551040649,1.0269467540329733,0.5861294865608215
4,0.9257068435351054,0.5982042551040649,1.0175440351728402,0.5860047340393066
